const nomodify struct MOS6526_CIA* CIA1 = (struct MOS6526_CIA*) 56320
const nomodify byte CIA_INTERRUPT_CLEAR = $7f
const nomodify byte* DEFAULT_SCREEN = (byte*) 2048
const nomodify struct F018_DMAGIC* DMA = (struct F018_DMAGIC*) 55040
const nomodify byte DMA_COMMAND_COPY = 0
const nomodify void()** HARDWARE_IRQ = (void()**) 65534
const nomodify byte IRQ_RASTER = 1
const byte* MUSIC[]  = kickasm {{ .const music = LoadSid("Cybernoid_II_4000.sid")
    .fill music.size, music.getData(i)
 }}
const nomodify byte* MUSIC_END = (byte*) 20992
const byte OFFSET_STRUCT_DMA_LIST_F018B_COUNT = 1
const byte OFFSET_STRUCT_DMA_LIST_F018B_DEST = 6
const byte OFFSET_STRUCT_DMA_LIST_F018B_DEST_BANK = 8
const byte OFFSET_STRUCT_DMA_LIST_F018B_SRC = 3
const byte OFFSET_STRUCT_DMA_LIST_F018B_SRC_BANK = 5
const byte OFFSET_STRUCT_F018_DMAGIC_ADDRBANK = 2
const byte OFFSET_STRUCT_F018_DMAGIC_ADDRMB = 4
const byte OFFSET_STRUCT_F018_DMAGIC_ADDRMSB = 1
const byte OFFSET_STRUCT_F018_DMAGIC_EN018B = 3
const byte OFFSET_STRUCT_MEGA65_VICIV_CONTROLB = $31
const byte OFFSET_STRUCT_MEGA65_VICIV_CONTROLC = $54
const byte OFFSET_STRUCT_MEGA65_VICIV_SIDBDRWD_LO = $5c
const byte OFFSET_STRUCT_MOS4569_VICIII_KEY = $2f
const byte OFFSET_STRUCT_MOS6526_CIA_INTERRUPT = $d
const byte OFFSET_STRUCT_MOS6569_VICII_BORDER_COLOR = $20
const byte OFFSET_STRUCT_MOS6569_VICII_CONTROL1 = $11
const byte OFFSET_STRUCT_MOS6569_VICII_IRQ_ENABLE = $1a
const byte OFFSET_STRUCT_MOS6569_VICII_IRQ_STATUS = $19
const byte OFFSET_STRUCT_MOS6569_VICII_RASTER = $12
const nomodify byte* PROCPORT = (byte*) 1
const nomodify byte* PROCPORT_DDR = (byte*) 0
const nomodify byte PROCPORT_DDR_MEMORY_MASK = 7
const nomodify byte PROCPORT_RAM_IO = 5
const nomodify struct MOS6569_VICII* VICII = (struct MOS6569_VICII*) 53248
const nomodify struct MOS4569_VICIII* VICIII = (struct MOS4569_VICIII*) 53248
const nomodify struct MEGA65_VICIV* VICIV = (struct MEGA65_VICIV*) 53248
interrupt(HARDWARE_STACK) void irq()
byte irq::raster
byte irq::raster#0 reg byte a 6.5
void main()
byte main::i
byte main::i#1 reg byte y 202.0
byte main::i#2 reg byte y 168.33333333333331
byte main::mem_destroy_i
byte main::mem_destroy_i#1 reg byte x 22.4
byte main::mem_destroy_i#2 reg byte x 67.0
void memcpy_dma4(byte memcpy_dma4::dest_bank , void* memcpy_dma4::dest , byte memcpy_dma4::src_bank , void* memcpy_dma4::src , word memcpy_dma4::num)
void* memcpy_dma4::dest
const void* memcpy_dma4::dest#0 dest = (void*) 0
byte memcpy_dma4::dest_bank
const byte memcpy_dma4::dest_bank#0 dest_bank = 1
byte memcpy_dma4::dmaMode
byte memcpy_dma4::dmaMode#0 reg byte x 2.0
word memcpy_dma4::num
const word memcpy_dma4::num#0 num = MUSIC_END-MUSIC
void* memcpy_dma4::src
const void* memcpy_dma4::src#0 src = (void*)upperCodeData
byte memcpy_dma4::src_bank
const byte memcpy_dma4::src_bank#0 src_bank = 0
struct DMA_LIST_F018B memcpy_dma_command4 loadstore mem[12] = { command: DMA_COMMAND_COPY, count: 0, src: (byte*) 0, src_bank: 0, dest: (byte*) 0, dest_bank: 0, sub_command: 0, modulo: 0 }
void memoryRemap(byte memoryRemap::remapBlocks , word memoryRemap::lowerPageOffset , word memoryRemap::upperPageOffset)
byte~ memoryRemap::$0 reg byte a 202.0
byte~ memoryRemap::$1 zp[1]:6 67.33333333333333
byte~ memoryRemap::$2 reg byte a 202.0
byte~ memoryRemap::$3 reg byte a 202.0
byte~ memoryRemap::$4 reg byte a 202.0
byte~ memoryRemap::$5 reg byte a 202.0
byte~ memoryRemap::$6 zp[1]:7 67.33333333333333
byte~ memoryRemap::$7 reg byte a 202.0
byte~ memoryRemap::$8 reg byte a 202.0
byte~ memoryRemap::$9 reg byte a 202.0
const byte* memoryRemap::aVal = (byte*) 252
word memoryRemap::lowerPageOffset
word memoryRemap::lowerPageOffset#4 lowerPageOffset zp[2]:2 50.5
byte memoryRemap::remapBlocks
byte memoryRemap::remapBlocks#4 reg byte z 20.2
word memoryRemap::upperPageOffset
word memoryRemap::upperPageOffset#4 upperPageOffset zp[2]:4 18.363636363636363
const byte* memoryRemap::xVal = (byte*) 253
const byte* memoryRemap::yVal = (byte*) 254
const byte* memoryRemap::zVal = (byte*) 255
void memoryRemapBlock(byte memoryRemapBlock::blockPage , word memoryRemapBlock::memoryPage)
byte memoryRemapBlock::block
const byte memoryRemapBlock::block#0 block = $40>>5
byte memoryRemapBlock::blockBits
const byte memoryRemapBlock::blockBits#0 blockBits = 1<<memoryRemapBlock::block#0
byte memoryRemapBlock::blockPage
word memoryRemapBlock::memoryPage
word memoryRemapBlock::pageOffset
const word memoryRemapBlock::pageOffset#0 pageOffset = $100-$40
const void()* musicInit = (void()*)MUSIC
const void()* musicPlay = (void()*)MUSIC+3
const byte* upperCodeData[]  = kickasm {{ .segmentout [segments="Banked"]
 }}

reg byte x [ main::mem_destroy_i#2 main::mem_destroy_i#1 ]
reg byte y [ main::i#2 main::i#1 ]
zp[2]:2 [ memoryRemap::lowerPageOffset#4 ]
reg byte z [ memoryRemap::remapBlocks#4 ]
zp[2]:4 [ memoryRemap::upperPageOffset#4 ]
reg byte a [ irq::raster#0 ]
reg byte a [ memoryRemap::$0 ]
zp[1]:6 [ memoryRemap::$1 ]
reg byte a [ memoryRemap::$2 ]
reg byte a [ memoryRemap::$3 ]
reg byte a [ memoryRemap::$4 ]
reg byte a [ memoryRemap::$5 ]
zp[1]:7 [ memoryRemap::$6 ]
reg byte a [ memoryRemap::$7 ]
reg byte a [ memoryRemap::$8 ]
reg byte a [ memoryRemap::$9 ]
reg byte x [ memcpy_dma4::dmaMode#0 ]
mem[12] [ memcpy_dma_command4 ]
