const nomodify byte* DEFAULT_SCREEN = (byte*) 2048
const nomodify struct F018_DMAGIC* DMA = (struct F018_DMAGIC*) 55040
const nomodify byte DMA_COMMAND_FILL = 3
const byte OFFSET_STRUCT_DMA_LIST_F018B_COUNT = 1
const byte OFFSET_STRUCT_DMA_LIST_F018B_DEST = 6
const byte OFFSET_STRUCT_DMA_LIST_F018B_SRC = 3
const byte OFFSET_STRUCT_F018_DMAGIC_ADDRBANK = 2
const byte OFFSET_STRUCT_F018_DMAGIC_ADDRMB = 4
const byte OFFSET_STRUCT_F018_DMAGIC_ADDRMSB = 1
const byte OFFSET_STRUCT_F018_DMAGIC_EN018B = 3
void main()
void memoryRemap(byte memoryRemap::remapBlocks , word memoryRemap::lowerPageOffset , word memoryRemap::upperPageOffset)
const byte* memoryRemap::aVal = (byte*) 252
word memoryRemap::lowerPageOffset
byte memoryRemap::remapBlocks
word memoryRemap::upperPageOffset
const byte* memoryRemap::xVal = (byte*) 253
const byte* memoryRemap::yVal = (byte*) 254
const byte* memoryRemap::zVal = (byte*) 255
void memset_dma(void* memset_dma::dest , byte memset_dma::fill , word memset_dma::num)
void* memset_dma::dest
const void* memset_dma::dest#0 dest = (void*)DEFAULT_SCREEN
byte memset_dma::dmaMode
byte memset_dma::dmaMode#0 reg byte x 2.4444444444444446
byte memset_dma::fill
const byte memset_dma::fill#0 fill = '*'
word memset_dma::num
const word memset_dma::num#0 num = (word)$50*$a
struct DMA_LIST_F018B memset_dma_command loadstore mem[12] = { command: DMA_COMMAND_FILL, count: 0, src: (byte*) 0, src_bank: 0, dest: (byte*) 0, dest_bank: 0, sub_command: 0, modulo: 0 }

reg byte x [ memset_dma::dmaMode#0 ]
mem[12] [ memset_dma_command ]
