const nomodify byte* COLORRAM = (byte*) 55296
const nomodify byte CRAM2K = 1
const nomodify byte* DEFAULT_SCREEN = (byte*) 2048
const nomodify to_volatile byte* IO_BANK = (byte*) 53296
const nomodify to_volatile byte* IO_KEY = (byte*) 53295
const nomodify byte LIGHT_BLUE = $e
const byte RADIX::BINARY = 2
const byte RADIX::DECIMAL = $a
const byte RADIX::HEXADECIMAL = $10
const byte RADIX::OCTAL = 8
void __start()
byte conio_cursor_x loadstore zp[1]:6 4288.828571428571
byte conio_cursor_y loadstore zp[1]:7 62747.2156862745
byte* conio_line_color loadstore zp[2]:10 51397.860465116275
byte* conio_line_text loadstore zp[2]:8 49113.51111111111
void conio_mega65_init()
const nomodify byte* conio_mega65_init::BASIC_CURSOR_LINE = (byte*) 235
byte conio_mega65_init::line
byte conio_mega65_init::line#0 reg byte x 11.0
byte conio_mega65_init::line#2 reg byte x 22.0
void cputc(byte cputc::c)
byte cputc::c
byte cputc::c#0 reg byte a 10501.5
void cputln()
void cputs(to_nomodify byte* cputs::s)
byte cputs::c
byte cputs::c#1 reg byte a 1001.0
to_nomodify byte* cputs::s
to_nomodify byte* cputs::s#0 s zp[2]:2 500.5
to_nomodify byte* cputs::s#2 s zp[2]:2 1501.5
void cscroll()
void gotoxy(byte gotoxy::x , byte gotoxy::y)
byte*~ gotoxy::$5 zp[2]:16 202.0
byte*~ gotoxy::$6 zp[2]:12 202.0
word~ gotoxy::$7 zp[2]:12 151.5
word~ gotoxy::$8 zp[2]:14 202.0
word~ gotoxy::$9 zp[2]:12 202.0
word gotoxy::line_offset
word gotoxy::line_offset#0 line_offset zp[2]:12 101.0
byte gotoxy::x
const byte gotoxy::x#2 x = 0
byte gotoxy::y
byte gotoxy::y#2 reg byte x 71.0
byte gotoxy::y#4 reg byte x 67.33333333333333
void main()
const byte* main::s[$d]  = "hello world!"
void* memcpy(void* memcpy::destination , void* memcpy::source , word memcpy::num)
void* memcpy::destination
void* memcpy::destination#2 destination zp[2]:20
byte* memcpy::dst
byte* memcpy::dst#1 dst zp[2]:20 1.000000001E9
byte* memcpy::dst#2 dst zp[2]:20 1.0033333346666667E9
byte* memcpy::dst#4 dst zp[2]:20 2.0000002E7
word memcpy::num
void* memcpy::return
void* memcpy::source
void* memcpy::source#2 source zp[2]:4
byte* memcpy::src
byte* memcpy::src#1 src zp[2]:4 2.000000002E9
byte* memcpy::src#2 src zp[2]:4 1.00250000125E9
byte* memcpy::src#4 src zp[2]:4 1.0000001E7
byte* memcpy::src_end
byte* memcpy::src_end#0 src_end zp[2]:18 1.2625000025E8
void* memset(void* memset::str , byte memset::c , word memset::num)
byte memset::c
byte memset::c#4 reg byte z 1.42857143E8
byte* memset::dst
byte* memset::dst#1 dst zp[2]:4 2.000000002E9
byte* memset::dst#2 dst zp[2]:4 1.3366666683333335E9
byte* memset::dst#4 dst zp[2]:4 2.0000002E7
byte* memset::end
byte* memset::end#0 end zp[2]:20 1.683333336666667E8
word memset::num
void* memset::return
void* memset::str
void* memset::str#3 str zp[2]:4

reg byte x [ conio_mega65_init::line#2 conio_mega65_init::line#0 ]
reg byte x [ gotoxy::y#4 gotoxy::y#2 ]
zp[2]:2 [ cputs::s#2 cputs::s#0 ]
zp[2]:4 [ memset::str#3 memset::dst#2 memset::dst#4 memset::dst#1 memcpy::source#2 memcpy::src#2 memcpy::src#4 memcpy::src#1 ]
reg byte z [ memset::c#4 ]
zp[1]:6 [ conio_cursor_x ]
zp[1]:7 [ conio_cursor_y ]
zp[2]:8 [ conio_line_text ]
zp[2]:10 [ conio_line_color ]
zp[2]:12 [ gotoxy::$7 gotoxy::$9 gotoxy::line_offset#0 gotoxy::$6 ]
zp[2]:14 [ gotoxy::$8 ]
zp[2]:16 [ gotoxy::$5 ]
reg byte a [ cputs::c#1 ]
reg byte a [ cputc::c#0 ]
zp[2]:18 [ memcpy::src_end#0 ]
zp[2]:20 [ memset::end#0 memcpy::destination#2 memcpy::dst#2 memcpy::dst#4 memcpy::dst#1 ]
