const nomodify byte* COLORS = (byte*) 55296
const nomodify byte CRAM2K = 1
const nomodify to_volatile byte* IO_BANK = (byte*) 53296
const nomodify to_volatile byte* IO_KEY = (byte*) 53295
const byte OFFSET_STRUCT_MOS6569_VICII_BORDER_COLOR = $20
const byte OFFSET_STRUCT_MOS6569_VICII_RASTER = $12
const nomodify byte* SCREEN = (byte*) 2048
const nomodify struct MOS6569_VICII* VICII = (struct MOS6569_VICII*) 53248
void main()
byte~ main::$2 reg byte a 22.0
byte* main::col
byte* main::col#1 col zp[2]:4 22.0
byte* main::col#2 col zp[2]:4 13.75
byte* main::sc
byte* main::sc#1 sc zp[2]:2 22.0
byte* main::sc#2 sc zp[2]:2 14.666666666666666

zp[2]:2 [ main::sc#2 main::sc#1 ]
zp[2]:4 [ main::col#2 main::col#1 ]
reg byte a [ main::$2 ]
