const nomodify byte* BG_COLOR = (byte*) 49178
const byte* MESSAGE[]  = "hello world"
const byte* SCREEN[$32]  = { fill( $32, 0) }
const to_nomodify void()** VECTORS[]  = { &nmiHandler, &entryPoint }
void entryPoint()
byte entryPoint::i
byte entryPoint::i#1 reg byte x 16.5
byte entryPoint::i#2 reg byte x 22.0
void main()
interrupt(HARDWARE_ALL) void nmiHandler()

reg byte x [ entryPoint::i#2 entryPoint::i#1 ]
