const word* SCREEN = (word*) 1024
void main()
byte~ main::$1 reg byte a 22.0
byte~ main::$2 reg byte a 22.0
const nomodify word main::ch = $102
byte main::i loadstore !zp[-1]:2 zp[1]:2 9.875

zp[1]:2 [ main::i ]
reg byte a [ main::$1 ]
reg byte a [ main::$2 ]
