void __start()
void main()
const nomodify byte* main::SCREEN1 = (byte*) 1024
const nomodify byte* main::SCREEN2 = main::SCREEN1+$28
byte main::idx
const byte* main::ptr = &val
void setp(byte* setp::p , byte setp::v)
byte* setp::p
byte setp::v
const byte setp::v#0 v = 5
void setv(byte setv::v)
byte setv::v
const byte setv::v#0 v = 4
volatile byte val loadstore zp[1]:2 14.692307692307692

zp[1]:2 [ val ]
