const nomodify signed word* SCREEN = (signed word*) 1024
const byte SIZEOF_SIGNED_WORD = 2
const signed word* VALS[]  = { 1, 2, 3, 4 }
byte idx
byte idx#13 idx zp[1]:3 71.66666666666666
byte idx#14 idx zp[1]:3 10.363636363636363
void main()
byte~ main::$5 reg byte a 22.0
byte main::i
byte main::i#1 i zp[1]:2 16.5
byte main::i#2 i zp[1]:2 8.25
void print(signed word* print::p)
byte~ print::$0 reg byte a 202.0
signed word* print::p
signed word* print::p#2 p zp[2]:4 22.0
signed word* print::p#3 p zp[2]:4 56.0

zp[1]:2 [ main::i#2 main::i#1 ]
zp[1]:3 [ idx#13 idx#14 ]
zp[2]:4 [ print::p#3 print::p#2 ]
reg byte a [ main::$5 ]
reg byte a [ print::$0 ]
