const nomodify byte SZ = $f
const byte* items[SZ]  = { fill( SZ, 0) }
void main()
byte main::sub
byte main::sub#1 reg byte x 16.5
byte main::sub#2 reg byte x 22.0

reg byte x [ main::sub#2 main::sub#1 ]
