const nomodify word* SCREEN = (word*) 1024
byte idx
byte idx#13 reg byte x 8.666666666666666
byte idx#14 reg byte x 2.5
void main()
const word main::w = $1234
void print(word print::w)
byte~ print::$0 reg byte a 22.0
word print::w
word print::w#3 w zp[2]:2 5.5

reg byte x [ idx#13 idx#14 ]
zp[2]:2 [ print::w#3 ]
reg byte a [ print::$0 ]
