const byte BLACK = 0
const byte* BORDER_COLOR = (byte*) 53280
const byte DARK_GREY = $b
const nomodify void()** KERNEL_IRQ = (void()**) 788
const byte* RASTER = (byte*) 53266
void __start()
interrupt(HARDWARE_CLOBBER) void irq()
byte~ irq::$0 reg byte a 4.0
byte irq::raster_next
byte irq::raster_next#0 reg byte x 2.6666666666666665
byte irq::raster_next#1 reg byte x 4.0
byte irq::raster_next#2 reg byte x 6.0
volatile byte irq_raster_next loadstore zp[1]:2 4.0
void main()

reg byte x [ irq::raster_next#2 irq::raster_next#0 irq::raster_next#1 ]
zp[1]:2 [ irq_raster_next ]
reg byte a [ irq::$0 ]
