const nomodify byte* SCREEN = (byte*) 1024
void main()
byte main::i
byte main::i#1 reg byte x 16.5
byte main::i#2 reg byte x 6.6000000000000005
word main::i1
word main::i1#1 i1 zp[2]:2 16.5
word main::i1#2 i1 zp[2]:2 6.6000000000000005
byte main::idx
byte main::idx#10 reg byte y 14.666666666666666
byte main::idx#11 reg byte y 9.25
byte main::idx#12 reg byte y 15.333333333333332
byte main::idx#17 reg byte y 11.0
byte main::idx#4 reg byte y 22.0
byte main::idx#5 reg byte y 4.0
byte main::idx#6 reg byte y 22.0

reg byte x [ main::i#2 main::i#1 ]
reg byte y [ main::idx#10 main::idx#11 main::idx#4 ]
zp[2]:2 [ main::i1#2 main::i1#1 ]
reg byte y [ main::idx#12 main::idx#17 main::idx#5 main::idx#6 ]
