void main()
byte~ main::$0 reg byte a 4.0
byte~ main::$1 reg byte a 4.0
byte~ main::$2 reg byte a 4.0
byte~ main::$3 reg byte a 4.0
const byte* main::screen = (byte*) 1024
volatile word main::w loadstore zp[2]:2 20.0
const word* main::wp = &main::w

zp[2]:2 [ main::w ]
reg byte a [ main::$0 ]
reg byte a [ main::$1 ]
reg byte a [ main::$2 ]
reg byte a [ main::$3 ]
