const nomodify byte* BODY1 = SCREEN+MARGIN_TOP*LINE_LEN+MARGIN_LEFT
const nomodify byte* BODY2 = SCREEN+OFFSET
const nomodify byte LINE_LEN = $28
const nomodify byte MARGIN_LEFT = 4
const nomodify byte MARGIN_TOP = 4
const nomodify word OFFSET = (word)$28*5+5
const nomodify byte* SCREEN = (byte*) 1024
void main()

