const nomodify byte* CHARSET = (byte*) 8192
const nomodify byte* COLS = (byte*) 55296
const word* CORDIC_ATAN2_ANGLES_16[CORDIC_ITERATIONS_16]  = kickasm {{ .for (var i=0; i<CORDIC_ITERATIONS_16; i++)
        .word 256*2*256*atan(1/pow(2,i))/PI/2
 }}
const nomodify byte CORDIC_ITERATIONS_16 = $f
const nomodify byte* D018 = (byte*) 53272
const byte* FONT_HEX_PROTO[]  = { 2, 5, 5, 5, 2, 6, 2, 2, 2, 7, 6, 1, 2, 4, 7, 6, 1, 2, 1, 6, 5, 5, 7, 1, 1, 7, 4, 6, 1, 6, 3, 4, 6, 5, 2, 7, 1, 1, 1, 1, 2, 5, 2, 5, 2, 2, 5, 3, 1, 1, 2, 5, 7, 5, 5, 6, 5, 6, 5, 6, 2, 5, 4, 5, 2, 6, 5, 5, 5, 6, 7, 4, 6, 4, 7, 7, 4, 6, 4, 4 }
const nomodify byte* SCREEN = (byte*) 10240
word atan2_16(signed word atan2_16::x , signed word atan2_16::y)
signed word~ atan2_16::$2 zp[2]:9 2002.0
byte~ atan2_16::$22 reg byte a 2000002.0
byte~ atan2_16::$23 reg byte a 2000002.0
signed word~ atan2_16::$7 zp[2]:11 2002.0
word atan2_16::angle
word atan2_16::angle#1 angle zp[2]:13 1501.5
word atan2_16::angle#11 angle zp[2]:13 2002.0
word atan2_16::angle#12 angle zp[2]:13 190476.38095238095
word atan2_16::angle#13 angle zp[2]:13 1333334.6666666667
word atan2_16::angle#2 angle zp[2]:13 2000002.0
word atan2_16::angle#3 angle zp[2]:13 2000002.0
word atan2_16::angle#4 angle zp[2]:13 2002.0
word atan2_16::angle#5 angle zp[2]:13 2002.0
word atan2_16::angle#6 angle zp[2]:13 2001003.0
byte atan2_16::i
byte atan2_16::i#1 reg byte x 1500001.5
byte atan2_16::i#2 reg byte x 208333.5416666667
word atan2_16::return
word atan2_16::return#0 return zp[2]:13 701.0
word atan2_16::return#2 return zp[2]:13 202.0
byte atan2_16::shift
byte atan2_16::shift#1 reg byte y 2.0000002E7
byte atan2_16::shift#2 reg byte y 8000001.25
byte atan2_16::shift#5 reg byte y 666667.3333333334
signed word atan2_16::x
signed word atan2_16::x#0 x zp[2]:19 108.02631578947367
signed word atan2_16::xd
signed word atan2_16::xd#1 xd zp[2]:17 6666667.333333333
signed word atan2_16::xd#10 xd zp[2]:17 1000001.0
signed word atan2_16::xd#2 xd zp[2]:17 1000001.0
signed word atan2_16::xd#3 xd zp[2]:17 7666668.333333332
signed word atan2_16::xd#5 xd zp[2]:17 1000001.0
signed word atan2_16::xi
signed word atan2_16::xi#0 xi zp[2]:11 3003.0
signed word atan2_16::xi#1 xi zp[2]:11 500000.5
signed word atan2_16::xi#13 xi zp[2]:11 2002.0
signed word atan2_16::xi#2 xi zp[2]:11 500000.5
signed word atan2_16::xi#3 xi zp[2]:11 266733.6666666667
signed word atan2_16::xi#8 xi zp[2]:11 1000001.0
signed word atan2_16::y
signed word atan2_16::y#0 y zp[2]:21 102.625
signed word atan2_16::yd
signed word atan2_16::yd#1 yd zp[2]:15 1.0000001E7
signed word atan2_16::yd#10 yd zp[2]:15 2000002.0
signed word atan2_16::yd#2 yd zp[2]:15 2000002.0
signed word atan2_16::yd#3 yd zp[2]:15 4600001.0
signed word atan2_16::yd#5 yd zp[2]:15 2000002.0
signed word atan2_16::yi
signed word atan2_16::yi#0 yi zp[2]:9 600.5999999999999
signed word atan2_16::yi#1 yi zp[2]:9 666667.3333333334
signed word atan2_16::yi#16 yi zp[2]:9 2002.0
signed word atan2_16::yi#2 yi zp[2]:9 666667.3333333334
signed word atan2_16::yi#3 yi zp[2]:9 353000.41176470584
signed word atan2_16::yi#8 yi zp[2]:9 1000001.0
void init_font_hex(byte* init_font_hex::charset)
byte~ init_font_hex::$0 zp[1]:23 10001.0
byte~ init_font_hex::$1 reg byte a 20002.0
byte~ init_font_hex::$2 reg byte a 20002.0
byte init_font_hex::c
byte init_font_hex::c#1 c zp[1]:6 151.5
byte init_font_hex::c#6 c zp[1]:6 10.631578947368421
byte init_font_hex::c1
byte init_font_hex::c1#1 c1 zp[1]:7 1501.5
byte init_font_hex::c1#4 c1 zp[1]:7 133.46666666666667
byte* init_font_hex::charset
byte* init_font_hex::charset#0 charset zp[2]:11 350.5
byte* init_font_hex::charset#2 charset zp[2]:11 1079.0714285714287
byte* init_font_hex::charset#5 charset zp[2]:11 202.0
byte init_font_hex::i
byte init_font_hex::i#1 reg byte x 15001.5
byte init_font_hex::i#2 reg byte x 6667.333333333333
byte init_font_hex::idx
byte init_font_hex::idx#2 idx zp[1]:8 5501.0
byte init_font_hex::idx#3 reg byte y 2002.0
byte init_font_hex::idx#5 idx zp[1]:8 6000.6
byte* init_font_hex::proto_hi
byte* init_font_hex::proto_hi#1 proto_hi zp[2]:9 67.33333333333333
byte* init_font_hex::proto_hi#6 proto_hi zp[2]:9 566.8333333333333
byte* init_font_hex::proto_lo
byte* init_font_hex::proto_lo#1 proto_lo zp[2]:13 500.5
byte* init_font_hex::proto_lo#4 proto_lo zp[2]:13 923.3076923076923
void main()
word~ main::$3 zp[2]:13 202.0
byte main::ang_w
byte main::ang_w#0 reg byte a 202.0
word main::angle_w
word main::angle_w#0 angle_w zp[2]:13 202.0
const byte* main::col00 = COLS+(word)$c*$28+$13
byte* main::screen
byte* main::screen#1 screen zp[2]:4 42.599999999999994
byte* main::screen#2 screen zp[2]:4 28.545454545454547
byte* main::screen#4 screen zp[2]:4 22.0
byte* main::toD0181_gfx
byte main::toD0181_return
const byte main::toD0181_return#0 toD0181_return = >(word)SCREEN&$3fff*4|>(word)CHARSET/4&$f
byte* main::toD0181_screen
signed byte main::x
signed byte main::x#1 x zp[1]:3 151.5
signed byte main::x#2 x zp[1]:3 16.833333333333332
signed word main::xw
word main::xw#0 xw zp[2]:19 50.5
signed byte main::y
signed byte main::y#1 y zp[1]:2 16.5
signed byte main::y#4 y zp[1]:2 1.4666666666666666
signed word main::yw
word main::yw#0 yw zp[2]:21 50.5

zp[1]:2 [ main::y#4 main::y#1 ]
zp[1]:3 [ main::x#2 main::x#1 ]
zp[2]:4 [ main::screen#2 main::screen#4 main::screen#1 ]
zp[1]:6 [ init_font_hex::c#6 init_font_hex::c#1 ]
zp[1]:7 [ init_font_hex::c1#4 init_font_hex::c1#1 ]
reg byte x [ init_font_hex::i#2 init_font_hex::i#1 ]
zp[1]:8 [ init_font_hex::idx#5 init_font_hex::idx#2 ]
zp[2]:9 [ atan2_16::yi#3 atan2_16::yi#8 atan2_16::yi#0 atan2_16::yi#16 atan2_16::$2 atan2_16::yi#1 atan2_16::yi#2 init_font_hex::proto_hi#6 init_font_hex::proto_hi#1 ]
zp[2]:11 [ atan2_16::xi#3 atan2_16::xi#8 atan2_16::xi#0 atan2_16::xi#13 atan2_16::$7 atan2_16::xi#1 atan2_16::xi#2 init_font_hex::charset#2 init_font_hex::charset#5 init_font_hex::charset#0 ]
reg byte x [ atan2_16::i#2 atan2_16::i#1 ]
zp[2]:13 [ atan2_16::angle#6 atan2_16::angle#12 atan2_16::angle#13 atan2_16::angle#2 atan2_16::angle#3 atan2_16::return#0 atan2_16::angle#11 atan2_16::angle#1 atan2_16::angle#4 atan2_16::angle#5 atan2_16::return#2 main::angle_w#0 main::$3 init_font_hex::proto_lo#4 init_font_hex::proto_lo#1 ]
reg byte y [ atan2_16::shift#2 atan2_16::shift#5 atan2_16::shift#1 ]
zp[2]:15 [ atan2_16::yd#5 atan2_16::yd#3 atan2_16::yd#10 atan2_16::yd#1 atan2_16::yd#2 ]
zp[2]:17 [ atan2_16::xd#5 atan2_16::xd#3 atan2_16::xd#10 atan2_16::xd#1 atan2_16::xd#2 ]
zp[2]:19 [ main::xw#0 atan2_16::x#0 ]
zp[2]:21 [ main::yw#0 atan2_16::y#0 ]
reg byte a [ main::ang_w#0 ]
zp[1]:23 [ init_font_hex::$0 ]
reg byte a [ init_font_hex::$1 ]
reg byte a [ init_font_hex::$2 ]
reg byte y [ init_font_hex::idx#3 ]
reg byte a [ atan2_16::$23 ]
reg byte a [ atan2_16::$22 ]
