void main()
byte~ main::$1 reg byte a 22.0
byte main::c
byte main::c#1 reg byte x 22.0
byte main::c#2 reg byte x 22.0
byte main::c#3 reg byte x 13.2
byte main::c#5 reg byte x 33.0
const nomodify byte* main::screen = (byte*) 1024

reg byte x [ main::c#5 main::c#3 main::c#1 main::c#2 ]
reg byte a [ main::$1 ]
