const nomodify byte* SCREEN = (byte*) 1024
byte i
byte i#11 reg byte y 1.45
byte i#27 reg byte y 20.0
void main()
const byte main::default_default = '.'
byte main::default_mem_abs loadstore !mem[-1]:4097 mem[1]:4097 0.2222222222222222
const byte main::default_mem_flex = '.'
byte main::default_zp_abs loadstore !zp[-1]:17 zp[1]:17 0.26666666666666666
const byte main::default_zp_flex = '.'
const byte main::reg_default = '.'
byte main::reg_mem_abs !mem[-1]:4096
byte main::reg_mem_abs#0 reg_mem_abs !mem[-1]:4096 mem[1]:4096 0.5
const byte main::reg_mem_flex = '.'
byte main::reg_zp_abs !zp[-1]:16
byte main::reg_zp_abs#0 reg_zp_abs !zp[-1]:16 zp[1]:16 0.8
const byte main::reg_zp_flex = '.'
void out(byte out::c)
byte out::c
byte out::c#1 reg byte x 4.0
byte out::c#10 reg byte x 19.0
byte out::c#3 reg byte x 4.0
byte out::c#7 reg byte x 4.0
byte out::c#9 reg byte x 4.0

reg byte x [ out::c#10 out::c#1 out::c#3 out::c#7 out::c#9 ]
reg byte y [ i#27 i#11 ]
zp[1]:16 [ main::reg_zp_abs#0 ]
mem[1]:4096 [ main::reg_mem_abs#0 ]
zp[1]:17 [ main::default_zp_abs ]
mem[1]:4097 [ main::default_mem_abs ]
