const byte OFFSET_STRUCT_FOO_THING2 = 1
struct foo bar loadstore mem[2] = { thing1: 'a', thing2: 'b' }
void main()
const nomodify byte* main::SCREEN = (byte*) 1024
const struct foo* main::barp = &bar
byte main::i

mem[2] [ bar ]
