const nomodify byte* SCREEN1 = (byte*) 1024
const nomodify byte* SCREEN2 = (byte*)$400+$28
const nomodify byte* SCREEN3 = (byte*)$400+$50
const nomodify byte* SCREEN4 = (byte*)$400+$78
void __start()
byte idx_nssa_g loadstore zp[1]:2 20.61111111111111
byte idx_ssa_g
byte idx_ssa_g#1 reg byte y 71.0
byte idx_ssa_g#8 reg byte y 151.5
void main()
byte main::i
byte main::i#1 reg byte x 151.5
byte main::i#2 reg byte x 101.0
byte main::i1
byte main::i1#1 reg byte a 151.5
byte main::i1#2 reg byte a 101.0
byte main::i2
byte main::i2#1 reg byte x 151.5
byte main::i2#2 reg byte x 101.0
byte main::i3
byte main::i3#1 reg byte a 151.5
byte main::i3#2 reg byte a 101.0
byte main::idx_nssa_l loadstore zp[1]:3 11.875
byte main::idx_ssa_l
byte main::idx_ssa_l#2 reg byte y 71.0
byte main::idx_ssa_l#5 reg byte y 151.5

reg byte x [ main::i#2 main::i#1 ]
reg byte y [ idx_ssa_g#8 idx_ssa_g#1 ]
reg byte a [ main::i1#2 main::i1#1 ]
reg byte x [ main::i2#2 main::i2#1 ]
reg byte y [ main::idx_ssa_l#5 main::idx_ssa_l#2 ]
reg byte a [ main::i3#2 main::i3#1 ]
zp[1]:2 [ idx_nssa_g ]
zp[1]:3 [ main::idx_nssa_l ]
