const nomodify word* SCREEN = (word*) 1024
void main()
const byte* msg1[]  = { 'a', 'b', 'c', 'd' }
const byte* msg2[]  = { '1', '2', '3', '4' }
void print(byte* print::m)
byte~ print::$1 reg byte a 22.0
byte* print::m
byte* print::m#2 m zp[2]:2
byte screen_idx
byte screen_idx#11 screen_idx zp[1]:4 8.0
byte screen_idx#12 screen_idx zp[1]:4 3.25

zp[2]:2 [ print::m#2 ]
zp[1]:4 [ screen_idx#11 screen_idx#12 ]
reg byte a [ print::$1 ]
