void main()
byte*~ main::$1 zp[2]:4 22.0
word main::i
word main::i#1 i zp[2]:2 22.0
word main::i#2 i zp[2]:2 11.0
const nomodify byte* main::screen = (byte*) 1024

zp[2]:2 [ main::i#2 main::i#1 ]
zp[2]:4 [ main::$1 ]
