void main()
const nomodify byte* main::SCREEN = (byte*) 1024
const dword main::a = $ee6b2800
dword main::b
dword main::b#0 b zp[4]:2 11.0
byte main::c
byte main::c#0 reg byte a 22.0
byte main::i
byte main::i#1 reg byte x 16.5
byte main::i#2 reg byte x 11.0

reg byte x [ main::i#2 main::i#1 ]
zp[4]:2 [ main::b#0 ]
reg byte a [ main::c#0 ]
