void fn1()
const nomodify byte* fn1::BORDER_COLOR = (byte*) 53280
void fn2()
const nomodify byte* fn2::BG_COLOR = (byte*) 53281
void main()
const nomodify byte* main::SCREEN = (byte*) 1024
void()* main::f

