void main()
byte main::j
byte main::j#1 reg byte x 16.5
byte main::j#2 reg byte x 16.5
word main::w
word main::w#1 w zp[2]:2 7.333333333333333
word main::w#2 w zp[2]:2 22.0

zp[2]:2 [ main::w#2 main::w#1 ]
reg byte x [ main::j#2 main::j#1 ]
