const byte* fibs[$19]  = { fill( $19, 0) }
void main()
byte~ main::$3 reg byte a 22.0
byte main::i
byte main::i#1 reg byte x 22.0
byte main::i#2 reg byte x 16.5

reg byte x [ main::i#2 main::i#1 ]
reg byte a [ main::$3 ]
