const byte SIZEOF_WORD = 2
const word* fibs[$19]  = { fill( $19, 0) }
void main()
byte~ main::$1 zp[1]:3 4.4
byte~ main::$2 reg byte x 11.0
word~ main::$3 zp[2]:4 11.0
byte~ main::$6 reg byte y 11.0
byte~ main::$7 reg byte a 22.0
byte~ main::$8 reg byte a 22.0
byte main::i
byte main::i#1 i zp[1]:2 22.0
byte main::i#2 i zp[1]:2 7.333333333333334

zp[1]:2 [ main::i#2 main::i#1 ]
zp[1]:3 [ main::$1 ]
reg byte x [ main::$2 ]
reg byte y [ main::$6 ]
reg byte a [ main::$7 ]
zp[2]:4 [ main::$3 ]
reg byte a [ main::$8 ]
