const nomodify byte* SCREEN = (byte*) 1024
void main()
byte main::h
byte main::h#1 h zp[1]:2 16.5
byte main::h#4 h zp[1]:2 20.499999999999996
const byte* main::his[]  = { >SCREEN, >SCREEN+$100, >SCREEN+$200 }
byte main::l
byte main::l#1 reg byte x 151.5
byte main::l#2 reg byte x 101.0
byte* main::sc
word main::w
word main::w#0 w zp[2]:3 101.0

zp[1]:2 [ main::h#4 main::h#1 ]
reg byte x [ main::l#2 main::l#1 ]
zp[2]:3 [ main::w#0 ]
