const nomodify byte* BG_COLOR = (byte*) 53280
const nomodify byte BLACK = 0
const nomodify byte* CIA1_INTERRUPT = (byte*) 56333
const nomodify byte CIA_INTERRUPT_CLEAR = $7f
const nomodify byte* IRQ_ENABLE = (byte*) 53274
const nomodify byte IRQ_RASTER = 1
const nomodify byte* IRQ_STATUS = (byte*) 53273
const nomodify void()** KERNEL_IRQ = (void()**) 788
const nomodify byte* RASTER = (byte*) 53266
const nomodify byte* VIC_CONTROL = (byte*) 53265
const nomodify byte WHITE = 1
interrupt(KERNEL_KEYBOARD) void irq()
void main()

