volatile byte* SCREEN loadstore zp[2]:3 22.8
void __start()
void init_1()
void init_2()
void main()
void print()
volatile byte sym loadstore zp[1]:2 16.285714285714285

zp[1]:2 [ sym ]
zp[2]:3 [ SCREEN ]
