void main()
byte main::i
byte main::i#1 reg byte y 151.5
byte main::i#2 reg byte y 134.66666666666666
byte* main::line
byte* main::line#1 line zp[2]:2 22.0
byte* main::line#2 line zp[2]:2 30.75

zp[2]:2 [ main::line#2 main::line#1 ]
reg byte y [ main::i#2 main::i#1 ]
