const nomodify byte* SCREEN = (byte*) 1024
void main()
byte~ main::$0 reg byte a 22.0
byte~ main::$3 reg byte a 11.0
byte main::i
byte main::i#1 reg byte x 16.5
byte main::i#2 reg byte x 7.333333333333333

reg byte x [ main::i#2 main::i#1 ]
reg byte a [ main::$3 ]
reg byte a [ main::$0 ]
