const byte SIZEOF_SIGNED_WORD = 2
const byte SIZEOF_WORD = 2
void main()
const signed byte sb = -$29
const signed byte* sb_screen = (signed byte*) 1064
const signed word sw = -$3000
const signed word* sw_screen = (signed word*) 1144
const byte ub = $29
const byte* ub_screen = (byte*) 1024
const word uw = $3000
const word* uw_screen = (word*) 1104

