const byte* MESSAGE[]  = "hello world!"
const nomodify byte* SCREEN = (byte*) 1024
void main()
byte main::c
byte main::c#1 reg byte a 11.0
byte main::i
byte main::i#1 reg byte x 22.0
byte main::i#2 reg byte x 6.6000000000000005
byte* main::s
byte* main::s#1 s zp[2]:2 5.5
byte* main::s#2 s zp[2]:2 16.5

zp[2]:2 [ main::s#2 main::s#1 ]
reg byte x [ main::i#2 main::i#1 ]
reg byte a [ main::c#1 ]
