void incscreen(word incscreen::ptr)
word incscreen::ptr
void main()
const word main::offset = (word)$28*$a
byte main::x
byte main::x#1 reg byte x 22.0
byte main::x#2 reg byte x 8.25
const to_nomodify byte* screen = (byte*) 1024

reg byte x [ main::x#2 main::x#1 ]
