const byte* DIGITS[]  = "0123456789abcdef"z
const word* PRIMES[$3e8]  = { fill( $3e8, 0) }
const byte RADIX::BINARY = 2
const byte RADIX::DECIMAL = $a
const byte RADIX::HEXADECIMAL = $10
const byte RADIX::OCTAL = 8
const word* RADIX_DECIMAL_VALUES[]  = { $2710, $3e8, $64, $a }
const byte SIZEOF_WORD = 2
const byte* decimal_digits[6]  = { fill( 6, 0) }
word div16u8u(word div16u8u::dividend , byte div16u8u::divisor)
word div16u8u::dividend
word div16u8u::dividend#0 dividend zp[2]:5 420.59999999999997
byte div16u8u::divisor
byte div16u8u::divisor#0 divisor zp[1]:9 420.59999999999997
word div16u8u::quotient
byte div16u8u::quotient_hi
byte div16u8u::quotient_lo
word div16u8u::return
byte divr8u(byte divr8u::dividend , byte divr8u::divisor , byte divr8u::rem)
byte~ divr8u::$1 reg byte a 2.0000002E7
byte divr8u::dividend
byte divr8u::dividend#0 dividend zp[1]:10 2500000.25
byte divr8u::dividend#1 dividend zp[1]:10 1001.0
byte divr8u::dividend#2 dividend zp[1]:10 667.3333333333334
byte divr8u::dividend#3 dividend zp[1]:10 5001667.333333333
byte divr8u::dividend#5 dividend zp[1]:10 12003.0
byte divr8u::divisor
byte divr8u::divisor#0 divisor zp[1]:9 2002.0
byte divr8u::divisor#1 divisor zp[1]:9 1001.0
byte divr8u::divisor#6 divisor zp[1]:9 1333466.933333333
byte divr8u::i
byte divr8u::i#1 reg byte x 1.50000015E7
byte divr8u::i#2 reg byte x 1666666.8333333333
byte divr8u::quotient
byte divr8u::quotient#1 quotient zp[1]:11 1.50000015E7
byte divr8u::quotient#2 quotient zp[1]:11 1.0000001E7
byte divr8u::quotient#3 quotient zp[1]:11 2857143.1428571427
byte divr8u::rem
byte divr8u::rem#0 reg byte y 1.0000001E7
byte divr8u::rem#1 reg byte y 2.0000002E7
byte divr8u::rem#10 reg byte y 11002.0
byte divr8u::rem#11 reg byte y 1.0003334666666666E7
byte divr8u::rem#2 reg byte y 2.0000002E7
byte divr8u::rem#4 reg byte y 2002.0
byte divr8u::rem#5 reg byte y 2.0010003E7
byte divr8u::rem#6 reg byte y 1.0000001E7
byte divr8u::return
byte divr8u::return#0 return zp[1]:11 1.0000001E7
void main()
word~ main::$0 zp[2]:7 22.0
byte~ main::$12 reg byte a 11.0
byte~ main::$13 reg byte x 50.5
word~ main::$14 zp[2]:17 22.0
word*~ main::$15 zp[2]:17 22.0
byte main::p
byte main::p#0 reg byte a 16.5
word mul8u(byte mul8u::a , byte mul8u::b)
byte~ mul8u::$1 reg byte a 20002.0
byte mul8u::a
byte mul8u::a#0 reg byte x 10001.0
byte mul8u::a#1 reg byte x 37.33333333333333
byte mul8u::a#2 reg byte x 6684.166666666666
byte mul8u::b
byte mul8u::b#0 reg byte a 11.0
word mul8u::mb
word mul8u::mb#0 mb zp[2]:17 202.0
word mul8u::mb#1 mb zp[2]:17 20002.0
word mul8u::mb#2 mb zp[2]:17 4300.571428571429
word mul8u::res
word mul8u::res#1 res zp[2]:7 20002.0
word mul8u::res#2 res zp[2]:7 5002.333333333333
word mul8u::res#6 res zp[2]:7 10001.0
word mul8u::return
word mul8u::return#2 return zp[2]:7 22.0
word potential
word potential#1 potential zp[2]:5 22.0
word potential#10 potential zp[2]:5 59.28571428571429
word potential#11 potential zp[2]:5 30.545454545454547
word potential#15 potential zp[2]:5 3.0
word potential#2 potential zp[2]:5 202.0
word prime_idx
word prime_idx#1 prime_idx zp[2]:3 4.888888888888889
word prime_idx#17 prime_idx zp[2]:3 1.0
void print_char(byte print_char::ch)
byte print_char::ch
byte print_char::ch#0 reg byte a 200002.0
byte print_char::ch#2 reg byte a 1100002.0
byte* print_char_cursor
byte* print_char_cursor#1 print_char_cursor zp[2]:15 210100.40000000002
byte* print_char_cursor#17 print_char_cursor zp[2]:15 183335.50000000003
byte* print_char_cursor#34 print_char_cursor zp[2]:15 32.64516129032258
byte* print_line_cursor
byte* print_screen
const byte* print_screen#0 print_screen = (byte*) 1024
void print_str(byte* print_str::str)
byte* print_str::str
byte* print_str::str#0 str zp[2]:13 200002.0
byte* print_str::str#2 str zp[2]:13 100001.0
void print_uint_decimal(word print_uint_decimal::w)
word print_uint_decimal::w
word print_uint_decimal::w#0 w zp[2]:5 112.0
byte rem8u
byte rem8u#0 reg byte y 1233.6666666666665
byte test_idx
byte test_idx#1 test_idx zp[1]:12 101.0
byte test_idx#10 test_idx zp[1]:12 151.5
byte test_idx#7 test_idx zp[1]:12 60.599999999999994
byte test_last
byte test_last#1 test_last zp[1]:2 22.0
byte test_last#13 test_last zp[1]:2 4.888888888888889
byte test_last#19 test_last zp[1]:2 6.380952380952381
void utoa(word utoa::value , byte* utoa::buffer , byte utoa::radix)
byte~ utoa::$10 reg byte a 200002.0
byte~ utoa::$11 reg byte a 2002.0
byte* utoa::buffer
byte* utoa::buffer#11 buffer zp[2]:13 28714.714285714286
byte* utoa::buffer#14 buffer zp[2]:13 150001.5
byte* utoa::buffer#3 buffer zp[2]:13 2002.0
byte* utoa::buffer#4 buffer zp[2]:13 200002.0
byte utoa::digit
byte utoa::digit#1 digit zp[1]:12 200002.0
byte utoa::digit#2 digit zp[1]:12 28571.714285714286
word utoa::digit_value
word utoa::digit_value#0 digit_value zp[2]:19 60000.600000000006
word* utoa::digit_values
byte utoa::max_digits
const byte utoa::max_digits#1 max_digits = 5
byte utoa::radix
byte utoa::started
byte utoa::started#2 reg byte x 50000.5
byte utoa::started#4 reg byte x 100001.0
word utoa::value
word utoa::value#0 value zp[2]:17 100001.0
word utoa::value#1 value zp[2]:17 551.0
word utoa::value#2 value zp[2]:17 57286.42857142857
word utoa::value#6 value zp[2]:17 150001.5
word utoa_append(byte* utoa_append::buffer , word utoa_append::value , word utoa_append::sub)
byte* utoa_append::buffer
byte* utoa_append::buffer#0 buffer zp[2]:13 137500.25
byte utoa_append::digit
byte utoa_append::digit#1 reg byte x 1.000000001E9
byte utoa_append::digit#2 reg byte x 1.0005000015E9
word utoa_append::return
word utoa_append::return#0 return zp[2]:17 200002.0
word utoa_append::sub
word utoa_append::sub#0 sub zp[2]:19 3.333500005E8
word utoa_append::value
word utoa_append::value#0 value zp[2]:17 366667.3333333334
word utoa_append::value#1 value zp[2]:17 2.000000002E9
word utoa_append::value#2 value zp[2]:17 5.0018333416666675E8

zp[1]:2 [ test_last#13 test_last#19 test_last#1 ]
zp[2]:3 [ prime_idx#17 prime_idx#1 ]
zp[2]:5 [ potential#10 potential#1 potential#15 potential#11 potential#2 div16u8u::dividend#0 print_uint_decimal::w#0 ]
reg byte x [ mul8u::a#2 mul8u::a#1 mul8u::a#0 ]
zp[2]:7 [ mul8u::res#2 mul8u::res#6 mul8u::res#1 mul8u::return#2 main::$0 ]
reg byte a [ print_char::ch#2 print_char::ch#0 ]
zp[1]:9 [ divr8u::divisor#6 divr8u::divisor#0 divr8u::divisor#1 div16u8u::divisor#0 ]
reg byte y [ divr8u::rem#5 divr8u::rem#10 divr8u::rem#4 divr8u::rem#11 divr8u::rem#6 divr8u::rem#0 divr8u::rem#1 divr8u::rem#2 ]
zp[1]:10 [ divr8u::dividend#3 divr8u::dividend#5 divr8u::dividend#1 divr8u::dividend#2 divr8u::dividend#0 ]
zp[1]:11 [ divr8u::quotient#3 divr8u::return#0 divr8u::quotient#1 divr8u::quotient#2 ]
reg byte x [ divr8u::i#2 divr8u::i#1 ]
zp[1]:12 [ utoa::digit#2 utoa::digit#1 test_idx#7 test_idx#10 test_idx#1 ]
reg byte x [ utoa::started#2 utoa::started#4 ]
zp[2]:13 [ print_str::str#2 print_str::str#0 utoa::buffer#11 utoa::buffer#14 utoa::buffer#4 utoa::buffer#3 utoa_append::buffer#0 ]
zp[2]:15 [ print_char_cursor#1 print_char_cursor#34 print_char_cursor#17 ]
reg byte x [ utoa_append::digit#2 utoa_append::digit#1 ]
reg byte a [ main::$12 ]
reg byte a [ main::p#0 ]
reg byte a [ mul8u::b#0 ]
reg byte x [ main::$13 ]
zp[2]:17 [ main::$14 main::$15 utoa::value#2 utoa::value#6 utoa::value#1 utoa::value#0 utoa_append::value#2 utoa_append::value#0 utoa_append::value#1 utoa_append::return#0 mul8u::mb#2 mul8u::mb#0 mul8u::mb#1 ]
reg byte a [ mul8u::$1 ]
reg byte a [ divr8u::$1 ]
reg byte y [ rem8u#0 ]
reg byte a [ utoa::$11 ]
reg byte a [ utoa::$10 ]
zp[2]:19 [ utoa::digit_value#0 utoa_append::sub#0 ]
