const nomodify struct MOS6526_CIA* CIA1 = (struct MOS6526_CIA*) 56320
const nomodify byte* COLORRAM = (byte*) 55296
const nomodify byte* DEFAULT_SCREEN = (byte*) 1024
const byte* DIGITS[]  = "0123456789abcdef"z
const nomodify byte LIGHT_BLUE = $e
const byte OFFSET_STRUCT_MOS6526_CIA_TIMER_A_CONTROL = $e
const byte OFFSET_STRUCT_MOS6526_CIA_TIMER_B_CONTROL = $f
const byte OFFSET_STRUCT_MOS6526_CIA_TOD_10THS = 8
const byte OFFSET_STRUCT_MOS6526_CIA_TOD_HOURS = $b
const byte OFFSET_STRUCT_MOS6526_CIA_TOD_MIN = $a
const byte OFFSET_STRUCT_MOS6526_CIA_TOD_SEC = 9
const byte OFFSET_STRUCT_PRINTF_BUFFER_NUMBER_DIGITS = 1
const byte OFFSET_STRUCT_TIME_OF_DAY_HOURS = 3
const byte OFFSET_STRUCT_TIME_OF_DAY_MIN = 2
const byte OFFSET_STRUCT_TIME_OF_DAY_SEC = 1
const byte RADIX::BINARY = 2
const byte RADIX::DECIMAL = $a
const byte RADIX::HEXADECIMAL = $10
const byte RADIX::OCTAL = 8
const word* RADIX_DECIMAL_VALUES[]  = { $2710, $3e8, $64, $a }
const byte SIZEOF_STRUCT_PRINTF_BUFFER_NUMBER = $c
struct TIME_OF_DAY TOD_ZERO loadstore mem[4] = { TENTHS: 0, SEC: 0, MIN: 0, HOURS: 0 }
void __start()
void conio_c64_init()
const nomodify byte* conio_c64_init::BASIC_CURSOR_LINE = (byte*) 214
byte conio_c64_init::line
byte conio_c64_init::line#0 reg byte x 11.0
byte conio_c64_init::line#2 reg byte x 22.0
byte conio_cursor_x loadstore zp[1]:8 1.9230782166666668E7
byte conio_cursor_y loadstore zp[1]:9 3.404255426382979E8
byte* conio_line_color loadstore zp[2]:12 2.5697675590697676E8
byte* conio_line_text loadstore zp[2]:10 2.5113637509090906E8
void cputc(byte cputc::c)
byte cputc::c
byte cputc::c#0 reg byte a 2.0000002E7
byte cputc::c#2 reg byte a 20002.0
byte cputc::c#3 reg byte a 1.05005002E8
void cputln()
void cputs(to_nomodify byte* cputs::s)
byte cputs::c
byte cputs::c#1 reg byte a 1.0000001E7
to_nomodify byte* cputs::s
to_nomodify byte* cputs::s#0 s zp[2]:4 5000000.5
to_nomodify byte* cputs::s#5 s zp[2]:4 1.5050002E7
to_nomodify byte* cputs::s#6 s zp[2]:4 100001.0
void cscroll()
void gotoxy(byte gotoxy::x , byte gotoxy::y)
byte*~ gotoxy::$5 zp[2]:20 2002.0
byte*~ gotoxy::$6 zp[2]:16 2002.0
word~ gotoxy::$7 zp[2]:16 1501.5
word~ gotoxy::$8 zp[2]:18 2002.0
word~ gotoxy::$9 zp[2]:16 2002.0
word gotoxy::line_offset
word gotoxy::line_offset#0 line_offset zp[2]:16 1001.0
byte gotoxy::x
byte gotoxy::y
byte gotoxy::y#2 reg byte x 22.0
byte gotoxy::y#6 reg byte x 671.0
byte gotoxy::y#7 reg byte x 667.3333333333334
void main()
byte~ main::$6 reg byte a 202.0
word main::i
word main::i#1 i zp[2]:2 202.0
word main::i#2 i zp[2]:2 42.08333333333333
const byte* main::s[7]  = "time: "
const byte* main::s1[5]  = "qwe "
void* memcpy(void* memcpy::destination , void* memcpy::source , word memcpy::num)
void* memcpy::destination
void* memcpy::destination#2 destination zp[2]:6
byte* memcpy::dst
byte* memcpy::dst#1 dst zp[2]:6 1.00000000000001E14
byte* memcpy::dst#2 dst zp[2]:6 1.0003333333333467E14
byte* memcpy::dst#4 dst zp[2]:6 2.00000000002E11
word memcpy::num
void* memcpy::return
void* memcpy::source
void* memcpy::source#2 source zp[2]:25
byte* memcpy::src
byte* memcpy::src#1 src zp[2]:25 2.00000000000002E14
byte* memcpy::src#2 src zp[2]:25 1.0002500000000125E14
byte* memcpy::src#4 src zp[2]:25 1.00000000001E11
byte* memcpy::src_end
byte* memcpy::src_end#0 src_end zp[2]:23 1.251250000000025E13
void* memset(void* memset::str , byte memset::c , word memset::num)
byte memset::c
byte memset::c#4 reg byte x 1.4285714285714428E13
byte* memset::dst
byte* memset::dst#1 dst zp[2]:6 2.00000000000002E14
byte* memset::dst#2 dst zp[2]:6 1.3336666666666834E14
byte* memset::dst#4 dst zp[2]:6 2.00000000002E11
byte* memset::end
byte* memset::end#0 end zp[2]:25 1.6683333333333668E13
word memset::num
void* memset::return
void* memset::str
void* memset::str#3 str zp[2]:6
struct printf_buffer_number printf_buffer loadstore mem[12] = {}
void printf_number_buffer(byte printf_number_buffer::buffer_sign , byte* printf_number_buffer::buffer_digits , byte printf_number_buffer::format_min_length , byte printf_number_buffer::format_justify_left , byte printf_number_buffer::format_sign_always , byte printf_number_buffer::format_zero_padding , byte printf_number_buffer::format_upper_case , byte printf_number_buffer::format_radix)
struct printf_buffer_number printf_number_buffer::buffer
byte* printf_number_buffer::buffer_digits
const byte* printf_number_buffer::buffer_digits#0 buffer_digits = (byte*)&printf_buffer+OFFSET_STRUCT_PRINTF_BUFFER_NUMBER_DIGITS
byte printf_number_buffer::buffer_sign
byte printf_number_buffer::buffer_sign#0 reg byte a 7001.0
struct printf_format_number printf_number_buffer::format
byte printf_number_buffer::format_justify_left
byte printf_number_buffer::format_min_length
byte printf_number_buffer::format_radix
byte printf_number_buffer::format_sign_always
byte printf_number_buffer::format_upper_case
byte printf_number_buffer::format_zero_padding
signed byte printf_number_buffer::len
signed byte printf_number_buffer::padding
void printf_string(byte* printf_string::str , byte printf_string::format_min_length , byte printf_string::format_justify_left)
struct printf_format_string printf_string::format
byte printf_string::format_justify_left
byte printf_string::format_min_length
signed byte printf_string::len
signed byte printf_string::padding
byte* printf_string::str
void printf_uint(word printf_uint::uvalue , byte printf_uint::format_min_length , byte printf_uint::format_justify_left , byte printf_uint::format_sign_always , byte printf_uint::format_zero_padding , byte printf_uint::format_upper_case , byte printf_uint::format_radix)
struct printf_format_number printf_uint::format
byte printf_uint::format_justify_left
byte printf_uint::format_min_length
byte printf_uint::format_radix
byte printf_uint::format_sign_always
byte printf_uint::format_upper_case
byte printf_uint::format_zero_padding
word printf_uint::uvalue
word printf_uint::uvalue#0 uvalue zp[2]:2 367.33333333333337
const byte* tod_buffer[]  = "00:00:00:00"
void tod_init(byte tod_init::tod_TENTHS , byte tod_init::tod_SEC , byte tod_init::tod_MIN , byte tod_init::tod_HOURS)
struct TIME_OF_DAY tod_init::tod
byte tod_init::tod_HOURS
byte tod_init::tod_HOURS#0 reg byte y 37.33333333333333
byte tod_init::tod_MIN
byte tod_init::tod_MIN#0 reg byte x 22.4
byte tod_init::tod_SEC
byte tod_init::tod_SEC#0 tod_SEC zp[1]:14 16.0
byte tod_init::tod_TENTHS
byte tod_init::tod_TENTHS#0 tod_TENTHS zp[1]:15 12.444444444444443
struct TIME_OF_DAY tod_read()
byte tod_read::hours
byte tod_read::mins
struct TIME_OF_DAY tod_read::return
byte tod_read::return_HOURS
byte tod_read::return_HOURS#0 return_HOURS zp[1]:22 12.444444444444443
byte tod_read::return_HOURS#2 reg byte a 5.5
byte tod_read::return_MIN
byte tod_read::return_MIN#0 reg byte a 16.0
byte tod_read::return_MIN#2 return_MIN zp[1]:14 5.5
byte tod_read::return_SEC
byte tod_read::return_SEC#0 reg byte x 22.4
byte tod_read::return_SEC#2 reg byte x 5.5
byte tod_read::return_TENTHS
byte tod_read::return_TENTHS#0 reg byte y 37.33333333333333
byte tod_read::return_TENTHS#2 reg byte y 5.5
byte tod_read::secs
byte tod_read::tenths
byte tod_read::tod_HOURS
byte tod_read::tod_MIN
byte tod_read::tod_SEC
byte tod_read::tod_TENTHS
byte* tod_str(byte tod_str::tod_TENTHS , byte tod_str::tod_SEC , byte tod_str::tod_MIN , byte tod_str::tod_HOURS)
byte~ tod_str::$0 reg byte a 202.0
byte~ tod_str::$1 reg byte a 202.0
byte~ tod_str::$10 reg byte a 202.0
byte~ tod_str::$11 reg byte a 202.0
byte~ tod_str::$12 reg byte a 202.0
byte~ tod_str::$13 reg byte a 202.0
byte~ tod_str::$14 reg byte a 202.0
byte~ tod_str::$15 reg byte a 202.0
byte~ tod_str::$2 reg byte a 202.0
byte~ tod_str::$3 reg byte a 202.0
byte~ tod_str::$4 reg byte a 202.0
byte~ tod_str::$5 reg byte a 202.0
byte~ tod_str::$6 reg byte a 202.0
byte~ tod_str::$7 reg byte a 202.0
byte~ tod_str::$8 reg byte a 202.0
byte~ tod_str::$9 reg byte a 202.0
byte* tod_str::return
struct TIME_OF_DAY tod_str::tod
byte tod_str::tod_HOURS
byte tod_str::tod_HOURS#0 reg byte x 53.25
byte tod_str::tod_MIN
byte tod_str::tod_MIN#0 reg byte y 19.363636363636363
byte tod_str::tod_SEC
byte tod_str::tod_SEC#0 tod_SEC zp[1]:15 11.833333333333332
byte tod_str::tod_TENTHS
byte tod_str::tod_TENTHS#0 tod_TENTHS zp[1]:22 8.52
void utoa(word utoa::value , byte* utoa::buffer , byte utoa::radix)
byte~ utoa::$10 reg byte a 2000002.0
byte~ utoa::$11 reg byte a 20002.0
byte* utoa::buffer
byte* utoa::buffer#11 buffer zp[2]:25 287143.2857142857
byte* utoa::buffer#14 buffer zp[2]:25 1500001.5
byte* utoa::buffer#3 buffer zp[2]:25 20002.0
byte* utoa::buffer#4 buffer zp[2]:25 2000002.0
byte utoa::digit
byte utoa::digit#1 digit zp[1]:15 2000002.0
byte utoa::digit#2 digit zp[1]:15 285714.5714285714
word utoa::digit_value
word utoa::digit_value#0 digit_value zp[2]:23 600000.6000000001
word* utoa::digit_values
byte utoa::max_digits
const byte utoa::max_digits#1 max_digits = 5
byte utoa::radix
byte utoa::started
byte utoa::started#2 reg byte x 500000.5
byte utoa::started#4 reg byte x 1000001.0
word utoa::value
word utoa::value#0 value zp[2]:4 1000001.0
word utoa::value#1 value zp[2]:4 5501.0
word utoa::value#2 value zp[2]:4 572857.857142857
word utoa::value#6 value zp[2]:4 1500001.5
word utoa_append(byte* utoa_append::buffer , word utoa_append::value , word utoa_append::sub)
byte* utoa_append::buffer
byte* utoa_append::buffer#0 buffer zp[2]:25 1375000.25
byte utoa_append::digit
byte utoa_append::digit#1 reg byte x 1.0000000001E10
byte utoa_append::digit#2 reg byte x 1.00050000015E10
word utoa_append::return
word utoa_append::return#0 return zp[2]:4 2000002.0
word utoa_append::sub
word utoa_append::sub#0 sub zp[2]:23 3.3335000005E9
word utoa_append::value
word utoa_append::value#0 value zp[2]:4 3666667.333333333
word utoa_append::value#1 value zp[2]:4 2.0000000002E10
word utoa_append::value#2 value zp[2]:4 5.001833334166666E9

reg byte x [ conio_c64_init::line#2 conio_c64_init::line#0 ]
zp[2]:2 [ main::i#2 main::i#1 printf_uint::uvalue#0 ]
reg byte x [ gotoxy::y#7 gotoxy::y#6 gotoxy::y#2 ]
reg byte a [ cputc::c#3 cputc::c#0 cputc::c#2 ]
zp[2]:4 [ utoa::value#2 utoa::value#6 utoa::value#1 utoa::value#0 utoa_append::value#2 utoa_append::value#0 utoa_append::value#1 utoa_append::return#0 cputs::s#5 cputs::s#6 cputs::s#0 ]
reg byte x [ utoa::started#2 utoa::started#4 ]
reg byte x [ utoa_append::digit#2 utoa_append::digit#1 ]
zp[2]:6 [ memset::str#3 memset::dst#2 memset::dst#4 memset::dst#1 memcpy::destination#2 memcpy::dst#2 memcpy::dst#4 memcpy::dst#1 ]
reg byte x [ memset::c#4 ]
zp[1]:8 [ conio_cursor_x ]
zp[1]:9 [ conio_cursor_y ]
zp[2]:10 [ conio_line_text ]
zp[2]:12 [ conio_line_color ]
reg byte x [ tod_init::tod_MIN#0 ]
reg byte y [ tod_init::tod_HOURS#0 ]
reg byte y [ tod_read::return_TENTHS#2 ]
reg byte x [ tod_read::return_SEC#2 ]
zp[1]:14 [ tod_read::return_MIN#2 tod_init::tod_SEC#0 ]
reg byte a [ tod_read::return_HOURS#2 ]
zp[1]:15 [ tod_str::tod_SEC#0 tod_init::tod_TENTHS#0 utoa::digit#2 utoa::digit#1 ]
reg byte y [ tod_str::tod_MIN#0 ]
reg byte x [ tod_str::tod_HOURS#0 ]
reg byte a [ main::$6 ]
zp[2]:16 [ gotoxy::$7 gotoxy::$9 gotoxy::line_offset#0 gotoxy::$6 ]
zp[2]:18 [ gotoxy::$8 ]
zp[2]:20 [ gotoxy::$5 ]
zp[1]:22 [ tod_read::return_HOURS#0 tod_str::tod_TENTHS#0 ]
reg byte a [ tod_read::return_MIN#0 ]
reg byte x [ tod_read::return_SEC#0 ]
reg byte y [ tod_read::return_TENTHS#0 ]
reg byte a [ tod_str::$0 ]
reg byte a [ tod_str::$1 ]
reg byte a [ tod_str::$2 ]
reg byte a [ tod_str::$3 ]
reg byte a [ tod_str::$4 ]
reg byte a [ tod_str::$5 ]
reg byte a [ tod_str::$6 ]
reg byte a [ tod_str::$7 ]
reg byte a [ tod_str::$8 ]
reg byte a [ tod_str::$9 ]
reg byte a [ tod_str::$10 ]
reg byte a [ tod_str::$11 ]
reg byte a [ tod_str::$12 ]
reg byte a [ tod_str::$13 ]
reg byte a [ tod_str::$14 ]
reg byte a [ tod_str::$15 ]
reg byte a [ cputs::c#1 ]
reg byte a [ printf_number_buffer::buffer_sign#0 ]
reg byte a [ utoa::$11 ]
reg byte a [ utoa::$10 ]
zp[2]:23 [ memcpy::src_end#0 utoa::digit_value#0 utoa_append::sub#0 ]
zp[2]:25 [ memset::end#0 memcpy::source#2 memcpy::src#2 memcpy::src#4 memcpy::src#1 utoa::buffer#11 utoa::buffer#14 utoa::buffer#4 utoa::buffer#3 utoa_append::buffer#0 ]
mem[12] [ printf_buffer ]
mem[4] [ TOD_ZERO ]
