void cputs(byte* cputs::str)
byte* cputs::str
byte* cputs::str#0 str zp[2]:4 2002.0
byte* cputs::str#4 str zp[2]:4 1026.25
byte* cputs::str#6 str zp[2]:4 101.0
void main()
const byte* main::name = "Jesper"
const byte* main::str[$d]  = "Hello, I am "
const byte* main::str1[$f]  = ". who are you?"
void printf_string(byte* printf_string::str , byte printf_string::format_min_length , byte printf_string::format_justify_left)
struct printf_format_string printf_string::format
byte printf_string::format_justify_left
byte printf_string::format_min_length
byte* printf_string::str
byte* screen
byte* screen#0 screen zp[2]:2 1001.0
byte* screen#1 screen zp[2]:2 283.3636363636364
byte* screen#25 screen zp[2]:2 114.0

zp[2]:2 [ screen#25 screen#1 screen#0 ]
zp[2]:4 [ cputs::str#4 cputs::str#6 cputs::str#0 ]
