const nomodify signed word* SCREEN = (signed word*) 1024
const byte SIZEOF_SIGNED_WORD = 2
const word STACK_BASE = $103
void __start()
signed word current loadstore zp[2]:4 27.727272727272727
void main()
signed word~ main::$0 zp[2]:2 22.0
signed word~ main::$1 zp[2]:4 22.0
__stackcall signed word next()
const byte next::OFFSET_STACK_RETURN = 0
signed word next::return
signed word next::return#0 return zp[2]:2 101.0

zp[2]:2 [ main::$0 next::return#0 ]
zp[2]:4 [ main::$1 current ]
