const byte OFFSET_STRUCT_POINT_Y = 1
const nomodify byte* SCREEN = (byte*) 1024
const word STACK_BASE = $103
void __start()
__stackcall struct Point get(byte get::i)
const byte get::OFFSET_STACK_I = 0
byte get::i
byte get::p_x
byte get::p_y
struct Point get::return
byte get::return_x
byte get::return_x#0 reg byte x 1501.5
byte get::return_y
byte get::return_y#0 reg byte y 1001.0
byte idx loadstore zp[1]:3 273.0909090909091
__stackcall void main()
byte main::i
byte main::i#1 i zp[1]:2 202.0
byte main::i#2 i zp[1]:2 36.72727272727273
byte main::p_x
byte main::p_x#0 reg byte y 101.0
byte main::p_y
byte main::p_y#0 reg byte x 101.0
__stackcall void print(byte print::p_x , byte print::p_y)
const byte print::OFFSET_STACK_P_X = 1
const byte print::OFFSET_STACK_P_Y = 0
byte print::p_x
byte print::p_x#0 reg byte y 1001.0
byte print::p_y
byte print::p_y#0 reg byte x 667.3333333333334

zp[1]:2 [ main::i#2 main::i#1 ]
zp[1]:3 [ idx ]
reg byte y [ print::p_x#0 ]
reg byte x [ print::p_y#0 ]
reg byte x [ get::return_x#0 ]
reg byte y [ get::return_y#0 ]
reg byte y [ main::p_x#0 ]
reg byte x [ main::p_y#0 ]
