const nomodify byte* SCREEN = (byte*) 1024
void __start()
__stackcall void main()
__stackcall void printline()
byte printline::i
byte printline::i#1 reg byte x 2002.0
byte printline::i#2 reg byte x 1334.6666666666667
byte val loadstore zp[1]:2 12.0

reg byte x [ printline::i#2 printline::i#1 ]
zp[1]:2 [ val ]
