const nomodify byte* SCREEN = (byte*) 1024
void __start()
volatile byte idx loadstore !zp[-1]:3 zp[1]:3 0.2
void main()
void print(volatile byte print::ch)
volatile byte print::ch loadstore !reg byte a 11.0

zp[1]:3 [ idx ]
reg byte a [ print::ch ]
