void main()
byte~ main::$0 reg byte a 22.0
const nomodify byte* main::SCREEN = (byte*) 1024
volatile byte main::i loadstore zp[1]:129 7.125
byte sub1(byte sub1::i)
byte sub1::i
byte sub1::i#0 reg byte a 213.0
byte sub1::return
byte sub1::return#0 reg byte a 22.0
byte sub1::return#1 reg byte a 37.33333333333333

zp[1]:129 [ main::i ]
reg byte a [ sub1::i#0 ]
reg byte a [ sub1::return#0 ]
reg byte a [ main::$0 ]
reg byte a [ sub1::return#1 ]
