const byte SIZEOF_WORD = 2
void main()
word* main::screen
word* main::screen#1 screen zp[2]:3 4.0
word* main::screen#2 screen zp[2]:3 7.333333333333333
byte main::y
byte main::y#1 y zp[1]:2 16.5
byte main::y#2 y zp[1]:2 3.6666666666666665
word main::z1
word main::z1#0 z1 zp[2]:5 22.0
word main::z2
word main::z2#0 z2 zp[2]:5 22.0
word mul8u(byte mul8u::a , byte mul8u::b)
byte~ mul8u::$1 reg byte a 20002.0
byte mul8u::a
byte mul8u::a#0 reg byte x 10001.0
byte mul8u::a#1 reg byte x 22.0
byte mul8u::a#2 reg byte x 22.0
byte mul8u::a#3 reg byte x 6684.166666666666
byte mul8u::a#6 reg byte x 123.0
byte mul8u::b
word mul8u::mb
word mul8u::mb#1 mb zp[2]:7 20002.0
word mul8u::mb#2 mb zp[2]:7 4286.142857142857
word mul8u::res
word mul8u::res#1 res zp[2]:5 20002.0
word mul8u::res#2 res zp[2]:5 4289.285714285714
word mul8u::res#6 res zp[2]:5 10001.0
word mul8u::return
word mul8u::return#2 return zp[2]:5 22.0
word mul8u::return#3 return zp[2]:5 22.0

zp[1]:2 [ main::y#2 main::y#1 ]
zp[2]:3 [ main::screen#1 main::screen#2 ]
reg byte x [ mul8u::a#3 mul8u::a#6 mul8u::a#1 mul8u::a#2 mul8u::a#0 ]
zp[2]:5 [ mul8u::res#2 mul8u::res#6 mul8u::res#1 mul8u::return#2 mul8u::return#3 main::z1#0 main::z2#0 ]
zp[2]:7 [ mul8u::mb#2 mul8u::mb#1 ]
reg byte a [ mul8u::$1 ]
