const nomodify byte* BORDER_COLOR = (byte*) 53280
word** BUCKETS
void* BUCKETS#0 BUCKETS zp[2]:24 0.02531645569620253
byte* BUCKET_IDX
void* BUCKET_IDX#0 BUCKET_IDX zp[2]:31 0.0425531914893617
byte* BUCKET_SIZES
void* BUCKET_SIZES#0 BUCKET_SIZES zp[2]:22 0.024691358024691357
const nomodify byte* COLS = (byte*) 55296
const word* CORDIC_ATAN2_ANGLES_16[CORDIC_ITERATIONS_16]  = kickasm {{ .for (var i=0; i<CORDIC_ITERATIONS_16; i++)
        .word 256*2*256*atan(1/pow(2,i))/PI/2
 }}
const nomodify byte CORDIC_ITERATIONS_16 = $f
const nomodify byte FILL_CHAR = '*'
const byte* HEAP_TOP = (byte*) 40960
const nomodify byte NUM_BUCKETS = $30
byte NUM_SQUARES
const byte NUM_SQUARES#2 NUM_SQUARES = $30
const byte RADIX::BINARY = 2
const byte RADIX::DECIMAL = $a
const byte RADIX::HEXADECIMAL = $10
const byte RADIX::OCTAL = 8
const nomodify byte* RASTER = (byte*) 53266
byte* SCREEN_ANGLE
void* SCREEN_ANGLE#0 SCREEN_ANGLE zp[2]:20 0.046511627906976744
byte* SCREEN_DIST
void* SCREEN_DIST#0 SCREEN_DIST zp[2]:29 0.13333333333333333
const nomodify byte* SCREEN_FILL = (byte*) 1024
const byte SIZEOF_BYTE = 1
const byte SIZEOF_POINTER = 2
const byte SIZEOF_WORD = 2
word* SQUARES
void* SQUARES#0 SQUARES zp[2]:6 16.14516129032258
void __start()
word atan2_16(signed word atan2_16::x , signed word atan2_16::y)
signed word~ atan2_16::$2 zp[2]:12 200002.0
byte~ atan2_16::$22 reg byte a 2.00000002E8
byte~ atan2_16::$23 reg byte a 2.00000002E8
signed word~ atan2_16::$7 zp[2]:14 200002.0
word atan2_16::angle
word atan2_16::angle#1 angle zp[2]:16 150001.5
word atan2_16::angle#11 angle zp[2]:16 200002.0
word atan2_16::angle#12 angle zp[2]:16 1.904761923809524E7
word atan2_16::angle#13 angle zp[2]:16 1.3333333466666667E8
word atan2_16::angle#2 angle zp[2]:16 2.00000002E8
word atan2_16::angle#3 angle zp[2]:16 2.00000002E8
word atan2_16::angle#4 angle zp[2]:16 200002.0
word atan2_16::angle#5 angle zp[2]:16 200002.0
word atan2_16::angle#6 angle zp[2]:16 2.00100003E8
byte atan2_16::i
byte atan2_16::i#1 reg byte x 1.500000015E8
byte atan2_16::i#2 reg byte x 2.0833333541666668E7
word atan2_16::return
word atan2_16::return#0 return zp[2]:16 70001.0
word atan2_16::return#2 return zp[2]:16 20002.0
byte atan2_16::shift
byte atan2_16::shift#1 reg byte y 2.000000002E9
byte atan2_16::shift#2 reg byte y 8.0000000125E8
byte atan2_16::shift#5 reg byte y 6.6666667333333336E7
signed word atan2_16::x
signed word atan2_16::x#0 x zp[2]:33 10789.605263157895
signed word atan2_16::xd
signed word atan2_16::xd#1 xd zp[2]:26 6.666666673333334E8
signed word atan2_16::xd#10 xd zp[2]:26 1.00000001E8
signed word atan2_16::xd#2 xd zp[2]:26 1.00000001E8
signed word atan2_16::xd#3 xd zp[2]:26 7.666666683333335E8
signed word atan2_16::xd#5 xd zp[2]:26 1.00000001E8
signed word atan2_16::xi
signed word atan2_16::xi#0 xi zp[2]:14 300003.0
signed word atan2_16::xi#1 xi zp[2]:14 5.00000005E7
signed word atan2_16::xi#13 xi zp[2]:14 200002.0
signed word atan2_16::xi#2 xi zp[2]:14 5.00000005E7
signed word atan2_16::xi#3 xi zp[2]:14 2.6673333666666668E7
signed word atan2_16::xi#8 xi zp[2]:14 1.00000001E8
signed word atan2_16::y
signed word atan2_16::y#0 y zp[2]:35 10250.125
signed word atan2_16::yd
signed word atan2_16::yd#1 yd zp[2]:18 1.000000001E9
signed word atan2_16::yd#10 yd zp[2]:18 2.00000002E8
signed word atan2_16::yd#2 yd zp[2]:18 2.00000002E8
signed word atan2_16::yd#3 yd zp[2]:18 4.6000000099999994E8
signed word atan2_16::yd#5 yd zp[2]:18 2.00000002E8
signed word atan2_16::yi
signed word atan2_16::yi#0 yi zp[2]:12 60000.600000000006
signed word atan2_16::yi#1 yi zp[2]:12 6.6666667333333336E7
signed word atan2_16::yi#16 yi zp[2]:12 200002.0
signed word atan2_16::yi#2 yi zp[2]:12 6.6666667333333336E7
signed word atan2_16::yi#3 yi zp[2]:12 3.53000004117647E7
signed word atan2_16::yi#8 yi zp[2]:12 1.00000001E8
word* bsearch16u(word bsearch16u::key , word* bsearch16u::items , byte bsearch16u::num)
byte~ bsearch16u::$14 reg byte a 2.000000002E9
word*~ bsearch16u::$2 zp[2]:18 2000002.0
byte~ bsearch16u::$6 reg byte a 2.000000002E9
word* bsearch16u::items
word* bsearch16u::items#0 items zp[2]:18 1.000000001E9
word* bsearch16u::items#1 items zp[2]:18 550001.0
word* bsearch16u::items#2 items zp[2]:18 3.337777785555556E8
word* bsearch16u::items#8 items zp[2]:18 1.5000000015E9
word bsearch16u::key
word bsearch16u::key#0 key zp[2]:35 73333.46666666667
byte bsearch16u::num
byte bsearch16u::num#0 reg byte x 2.000000002E9
byte bsearch16u::num#1 reg byte x 2.000000002E9
byte bsearch16u::num#3 reg byte x 5.555555561111112E8
byte bsearch16u::num#5 reg byte x 3.000000003E9
word* bsearch16u::pivot
word* bsearch16u::pivot#0 pivot zp[2]:40 5.0025000075E8
signed word bsearch16u::result
signed word bsearch16u::result#0 result zp[2]:42 1.5000000015E9
word* bsearch16u::return
word* bsearch16u::return#1 return zp[2]:18 700001.0
word* bsearch16u::return#2 return zp[2]:18 3000003.0
word* bsearch16u::return#3 return zp[2]:18 200002.0
word* bsearch16u::return#7 return zp[2]:18 2000002.0
byte* heap_head
byte* heap_head#0 heap_head zp[2]:3 129.1505376344086
byte* heap_head#19 heap_head zp[2]:3 12011.0
void init_angle_screen(byte* init_angle_screen::screen)
byte~ init_angle_screen::$10 reg byte a 20002.0
byte~ init_angle_screen::$11 reg byte a 20002.0
byte~ init_angle_screen::$3 reg byte a 20002.0
byte~ init_angle_screen::$4 reg byte a 20002.0
byte~ init_angle_screen::$5 reg byte a 20002.0
word~ init_angle_screen::$7 zp[2]:16 20002.0
byte~ init_angle_screen::$9 reg byte a 20002.0
byte init_angle_screen::ang_w
byte init_angle_screen::ang_w#0 ang_w zp[1]:37 8334.166666666666
word init_angle_screen::angle_w
word init_angle_screen::angle_w#0 angle_w zp[2]:16 20002.0
byte* init_angle_screen::screen
byte* init_angle_screen::screen#0 screen zp[2]:8 112.0
byte* init_angle_screen::screen_bottomline
byte* init_angle_screen::screen_bottomline#0 screen_bottomline zp[2]:8 151.5
byte* init_angle_screen::screen_bottomline#1 screen_bottomline zp[2]:8 667.3333333333334
byte* init_angle_screen::screen_bottomline#6 screen_bottomline zp[2]:8 884.2
byte* init_angle_screen::screen_topline
byte* init_angle_screen::screen_topline#1 screen_topline zp[2]:38 500.5
byte* init_angle_screen::screen_topline#6 screen_topline zp[2]:38 921.0416666666666
byte* init_angle_screen::screen_topline#7 screen_topline zp[2]:38 202.0
byte init_angle_screen::x
byte init_angle_screen::x#1 x zp[1]:10 10001.0
byte init_angle_screen::x#2 x zp[1]:10 2857.4285714285716
byte init_angle_screen::xb
byte init_angle_screen::xb#1 xb zp[1]:11 20002.0
byte init_angle_screen::xb#2 xb zp[1]:11 1818.3636363636363
signed word init_angle_screen::xw
word init_angle_screen::xw#0 xw zp[2]:33 3333.6666666666665
byte init_angle_screen::y
byte init_angle_screen::y#1 y zp[1]:28 1501.5
byte init_angle_screen::y#5 y zp[1]:28 461.65384615384613
signed word init_angle_screen::yw
word init_angle_screen::yw#0 yw zp[2]:35 5000.5
void init_buckets(byte* init_buckets::screen)
word~ init_buckets::$11 zp[2]:40 2002.0
word~ init_buckets::$12 zp[2]:42 2002.0
byte~ init_buckets::$13 reg byte a 2002.0
word~ init_buckets::$14 zp[2]:42 2002.0
byte*~ init_buckets::$15 zp[2]:6 2002.0
word**~ init_buckets::$16 zp[2]:40 2002.0
word**~ init_buckets::$17 zp[2]:42 2002.0
void*~ init_buckets::$4 zp[2]:6 333.6666666666667
word~ init_buckets::$7 zp[2]:38 1001.0
word* init_buckets::bucket
word* init_buckets::bucket#0 bucket zp[2]:42 667.3333333333334
byte* init_buckets::dist
byte* init_buckets::dist#1 dist zp[2]:18 667.3333333333334
byte* init_buckets::dist#3 dist_1 zp[2]:14 667.3333333333334
byte* init_buckets::dist#4 dist zp[2]:18 2052.5
byte* init_buckets::dist#5 dist_1 zp[2]:14 410.5
byte* init_buckets::dist#6 dist zp[2]:18 202.0
byte* init_buckets::dist#8 dist_1 zp[2]:14 202.0
byte init_buckets::distance
byte init_buckets::distance#0 distance zp[1]:37 500.5
byte init_buckets::i
byte init_buckets::i#1 reg byte y 1501.5
byte init_buckets::i#2 reg byte y 1501.5
word init_buckets::i1
word init_buckets::i1#1 i1 zp[2]:26 1501.5
word init_buckets::i1#2 i1 zp[2]:26 667.3333333333334
word init_buckets::i2
word init_buckets::i2#1 i2 zp[2]:12 1501.5
word init_buckets::i2#2 i2 zp[2]:12 500.5
byte init_buckets::i3
byte init_buckets::i3#1 reg byte y 1501.5
byte init_buckets::i3#2 reg byte y 1501.5
word init_buckets::i4
word init_buckets::i4#1 i4 zp[2]:16 1501.5
word init_buckets::i4#2 i4 zp[2]:16 182.0
byte* init_buckets::screen
byte* init_buckets::screen#0 screen zp[2]:29 30.349999999999998
void init_dist_screen(byte* init_dist_screen::screen)
byte~ init_dist_screen::$14 reg byte a 20002.0
byte~ init_dist_screen::$16 reg byte a 20002.0
byte~ init_dist_screen::$5 reg byte a 2002.0
byte~ init_dist_screen::$7 reg byte a 2002.0
byte init_dist_screen::d
byte init_dist_screen::d#0 reg byte a 12501.25
word init_dist_screen::ds
word init_dist_screen::ds#0 ds zp[2]:35 20002.0
byte* init_dist_screen::screen
byte* init_dist_screen::screen#0 screen zp[2]:38 53.25
byte* init_dist_screen::screen_bottomline
byte* init_dist_screen::screen_bottomline#0 screen_bottomline zp[2]:8 202.0
byte* init_dist_screen::screen_bottomline#1 screen_bottomline zp[2]:8 667.3333333333334
byte* init_dist_screen::screen_bottomline#11 screen_bottomline zp[2]:8 669.8484848484848
byte* init_dist_screen::screen_topline
byte* init_dist_screen::screen_topline#1 screen_topline zp[2]:38 500.5
byte* init_dist_screen::screen_topline#11 screen_topline zp[2]:38 690.78125
byte init_dist_screen::x
byte init_dist_screen::x#1 x zp[1]:10 10001.0
byte init_dist_screen::x#2 x zp[1]:10 3000.3
byte init_dist_screen::x2
byte init_dist_screen::x2#0 reg byte a 20002.0
byte init_dist_screen::xb
byte init_dist_screen::xb#1 xb zp[1]:11 20002.0
byte init_dist_screen::xb#2 xb zp[1]:11 1904.952380952381
byte init_dist_screen::xd
byte init_dist_screen::xd#0 reg byte a 30003.0
word init_dist_screen::xds
word init_dist_screen::xds#0 xds zp[2]:35 20002.0
byte init_dist_screen::y
byte init_dist_screen::y#1 y zp[1]:28 1501.5
byte init_dist_screen::y#10 y zp[1]:28 88.32352941176471
byte init_dist_screen::y2
byte init_dist_screen::y2#0 reg byte a 2002.0
byte init_dist_screen::yd
byte init_dist_screen::yd#0 reg byte a 3003.0
word init_dist_screen::yds
word init_dist_screen::yds#0 yds zp[2]:33 478.3478260869565
void init_squares()
byte~ init_squares::$3 reg byte a 20002.0
byte~ init_squares::$4 reg byte a 20002.0
byte init_squares::i
byte init_squares::i#1 reg byte x 20002.0
byte init_squares::i#2 reg byte x 5714.857142857143
word init_squares::sqr
word init_squares::sqr#1 sqr zp[2]:18 10001.0
word init_squares::sqr#2 sqr zp[2]:18 5000.5
word* init_squares::squares
word* init_squares::squares#0 squares zp[2]:26 2002.0
word* init_squares::squares#1 squares zp[2]:26 4000.4
word* init_squares::squares#2 squares zp[2]:26 10334.666666666666
void main()
byte~ main::$23 reg byte a 202.0
byte~ main::$24 reg byte a 2002.0
byte* main::angle
byte* main::angle#0 angle zp[2]:31 1501.5
word* main::bucket
word* main::bucket#0 bucket zp[2]:26 64.82352941176471
byte main::bucket_idx
byte main::bucket_idx#1 bucket_idx zp[1]:2 101.0
byte main::bucket_idx#6 bucket_idx zp[1]:2 24.24
byte main::bucket_size
byte main::bucket_size#0 bucket_size zp[1]:28 75.1875
byte* main::fill
byte* main::fill#0 fill zp[2]:29 2002.0
byte* main::fill1
byte* main::fill1#0 fill1 zp[2]:3 202.0
byte main::i
byte main::i#1 reg byte x 1001.0
byte main::i#2 reg byte x 333.6666666666667
byte main::min_angle
byte main::min_angle#1 min_angle zp[1]:5 2002.0
byte main::min_angle#2 min_angle zp[1]:5 400.4
byte main::min_angle#5 min_angle zp[1]:5 1334.6666666666667
word main::min_offset
word main::min_offset#11 min_offset_1 zp[2]:6 2002.0
word main::min_offset#2 min_offset zp[2]:3 356.11111111111114
word main::min_offset#5 min_offset_1 zp[2]:6 2002.0
word main::min_offset#8 min_offset zp[2]:3 2002.0
word main::min_offset#9 min_offset_1 zp[2]:6 2002.0
word main::offset
word main::offset#0 offset zp[2]:6 667.3333333333334
void* malloc(word malloc::size)
byte* malloc::mem
byte* malloc::mem#0 mem zp[2]:6 2000.2
void* malloc::return
word malloc::size
word malloc::size#1 size zp[2]:6 2002.0
word malloc::size#7 size zp[2]:6 11002.0
word sqr(byte sqr::val)
byte~ sqr::$0 reg byte a 200002.0
word sqr::return
word sqr::return#0 return zp[2]:35 27750.75
word sqr::return#2 return_1 zp[2]:33 2002.0
word sqr::return#3 return zp[2]:35 20002.0
byte sqr::val
byte sqr::val#0 reg byte a 2002.0
byte sqr::val#1 reg byte a 20002.0
byte sqr::val#2 reg byte a 111003.0
byte sqrt(word sqrt::val)
word~ sqrt::$1 zp[2]:18 100001.0
word~ sqrt::$2 zp[2]:18 200002.0
word* sqrt::found
word* sqrt::found#0 found zp[2]:18 200002.0
byte sqrt::return
byte sqrt::return#0 reg byte a 36667.33333333333
byte sqrt::return#2 reg byte a 20002.0
byte sqrt::sq
word sqrt::val
word sqrt::val#0 val zp[2]:35 110002.0

zp[1]:2 [ main::bucket_idx#6 main::bucket_idx#1 ]
reg byte x [ main::i#2 main::i#1 ]
zp[2]:3 [ main::min_offset#2 main::min_offset#8 main::fill1#0 heap_head#19 heap_head#0 ]
zp[1]:5 [ main::min_angle#2 main::min_angle#5 main::min_angle#1 ]
zp[2]:6 [ main::min_offset#5 main::min_offset#9 main::offset#0 main::min_offset#11 malloc::size#7 malloc::size#1 malloc::mem#0 init_buckets::$15 init_buckets::$4 SQUARES#0 ]
reg byte a [ init_dist_screen::yd#0 init_dist_screen::$7 init_dist_screen::$5 ]
reg byte a [ init_dist_screen::xd#0 init_dist_screen::$16 init_dist_screen::$14 ]
zp[2]:8 [ init_angle_screen::screen_bottomline#6 init_angle_screen::screen_bottomline#0 init_angle_screen::screen_bottomline#1 init_angle_screen::screen#0 init_dist_screen::screen_bottomline#11 init_dist_screen::screen_bottomline#0 init_dist_screen::screen_bottomline#1 ]
zp[1]:10 [ init_angle_screen::x#2 init_angle_screen::x#1 init_dist_screen::x#2 init_dist_screen::x#1 ]
zp[1]:11 [ init_angle_screen::xb#2 init_angle_screen::xb#1 init_dist_screen::xb#2 init_dist_screen::xb#1 ]
reg byte y [ init_buckets::i#2 init_buckets::i#1 ]
reg byte y [ init_buckets::i3#2 init_buckets::i3#1 ]
reg byte x [ init_squares::i#2 init_squares::i#1 ]
reg byte a [ sqr::val#2 sqr::val#1 sqr::val#0 ]
zp[2]:12 [ atan2_16::yi#3 atan2_16::yi#8 atan2_16::yi#0 atan2_16::yi#16 atan2_16::$2 atan2_16::yi#1 atan2_16::yi#2 init_buckets::i2#2 init_buckets::i2#1 ]
zp[2]:14 [ atan2_16::xi#3 atan2_16::xi#8 atan2_16::xi#0 atan2_16::xi#13 atan2_16::$7 atan2_16::xi#1 atan2_16::xi#2 init_buckets::dist#5 init_buckets::dist#8 init_buckets::dist#3 ]
reg byte x [ atan2_16::i#2 atan2_16::i#1 ]
zp[2]:16 [ atan2_16::angle#6 atan2_16::angle#12 atan2_16::angle#13 atan2_16::angle#2 atan2_16::angle#3 atan2_16::return#0 atan2_16::angle#11 atan2_16::angle#1 atan2_16::angle#4 atan2_16::angle#5 atan2_16::return#2 init_angle_screen::angle_w#0 init_angle_screen::$7 init_buckets::i4#2 init_buckets::i4#1 ]
reg byte y [ atan2_16::shift#2 atan2_16::shift#5 atan2_16::shift#1 ]
zp[2]:18 [ bsearch16u::return#1 bsearch16u::return#2 bsearch16u::items#2 bsearch16u::items#1 bsearch16u::items#8 bsearch16u::$2 bsearch16u::return#7 bsearch16u::items#0 bsearch16u::return#3 sqrt::found#0 sqrt::$2 sqrt::$1 atan2_16::yd#5 atan2_16::yd#3 atan2_16::yd#10 atan2_16::yd#1 atan2_16::yd#2 init_squares::sqr#2 init_squares::sqr#1 init_buckets::dist#4 init_buckets::dist#6 init_buckets::dist#1 ]
reg byte x [ bsearch16u::num#5 bsearch16u::num#1 bsearch16u::num#3 bsearch16u::num#0 ]
zp[2]:20 [ SCREEN_ANGLE#0 ]
zp[2]:22 [ BUCKET_SIZES#0 ]
zp[2]:24 [ BUCKETS#0 ]
reg byte a [ main::$23 ]
zp[2]:26 [ main::bucket#0 atan2_16::xd#5 atan2_16::xd#3 atan2_16::xd#10 atan2_16::xd#1 atan2_16::xd#2 init_squares::squares#2 init_squares::squares#1 init_squares::squares#0 init_buckets::i1#2 init_buckets::i1#1 ]
zp[1]:28 [ main::bucket_size#0 init_angle_screen::y#5 init_angle_screen::y#1 init_dist_screen::y#10 init_dist_screen::y#1 ]
reg byte a [ main::$24 ]
zp[2]:29 [ main::fill#0 SCREEN_DIST#0 init_buckets::screen#0 ]
zp[2]:31 [ main::angle#0 BUCKET_IDX#0 ]
reg byte a [ init_dist_screen::y2#0 ]
reg byte a [ init_dist_screen::x2#0 ]
reg byte a [ sqrt::return#2 ]
reg byte a [ init_dist_screen::d#0 ]
reg byte a [ init_angle_screen::$3 ]
reg byte a [ init_angle_screen::$4 ]
zp[2]:33 [ init_angle_screen::xw#0 atan2_16::x#0 sqr::return#2 init_dist_screen::yds#0 ]
reg byte a [ init_angle_screen::$5 ]
zp[2]:35 [ init_angle_screen::yw#0 atan2_16::y#0 sqr::return#3 init_dist_screen::xds#0 sqr::return#0 init_dist_screen::ds#0 sqrt::val#0 bsearch16u::key#0 ]
reg byte a [ init_angle_screen::$9 ]
reg byte a [ init_angle_screen::$10 ]
reg byte a [ init_angle_screen::$11 ]
zp[1]:37 [ init_buckets::distance#0 init_angle_screen::ang_w#0 ]
zp[2]:38 [ init_buckets::$7 init_angle_screen::screen_topline#6 init_angle_screen::screen_topline#7 init_angle_screen::screen_topline#1 init_dist_screen::screen_topline#11 init_dist_screen::screen#0 init_dist_screen::screen_topline#1 ]
reg byte a [ init_buckets::$13 ]
reg byte a [ init_squares::$3 ]
reg byte a [ init_squares::$4 ]
reg byte a [ sqr::$0 ]
reg byte a [ sqrt::return#0 ]
reg byte a [ atan2_16::$23 ]
reg byte a [ atan2_16::$22 ]
reg byte a [ bsearch16u::$6 ]
reg byte a [ bsearch16u::$14 ]
zp[2]:40 [ bsearch16u::pivot#0 init_buckets::$11 init_buckets::$16 ]
zp[2]:42 [ bsearch16u::result#0 init_buckets::$14 init_buckets::$12 init_buckets::$17 init_buckets::bucket#0 ]
