const byte* TEXT = "cml "
void main()
byte~ main::$0 reg byte a 22.0
const byte* main::SCREEN = (byte*) 1024
byte main::i
byte main::i#1 i zp[1]:2 16.5
byte main::i#2 i zp[1]:2 6.6000000000000005
byte next_char()
byte next_char::c
byte next_char::c#0 reg byte x 151.5
byte next_char::c#1 reg byte x 202.0
byte next_char::return
byte next_char::return#0 reg byte x 22.0
byte next_char::return#1 reg byte x 53.25
byte* nxt
byte* nxt#11 nxt zp[2]:3 202.0
byte* nxt#12 nxt zp[2]:3 14.0
byte* nxt#15 nxt zp[2]:3 71.0

zp[1]:2 [ main::i#2 main::i#1 ]
zp[2]:3 [ nxt#11 nxt#15 nxt#12 ]
reg byte x [ next_char::return#1 next_char::c#0 next_char::c#1 ]
reg byte x [ next_char::return#0 ]
reg byte a [ main::$0 ]
