void main()
byte~ main::$2 reg byte a 22.0
byte main::i
byte main::i#1 reg byte x 16.5
byte main::i#2 reg byte x 8.25
const signed word* main::screen = (signed word*) 1024
signed word main::w1
signed word main::w1#1 w1 zp[2]:2 6.6000000000000005
signed word main::w1#2 w1 zp[2]:2 22.0

zp[2]:2 [ main::w1#2 main::w1#1 ]
reg byte x [ main::i#2 main::i#1 ]
reg byte a [ main::$2 ]
