const nomodify byte* RASTER = (byte*) 53266
const nomodify byte* SCREEN = (byte*) 1024
const nomodify byte* SPRITE = (byte*) 8192
const nomodify byte* SPRITES_COLOR = (byte*) 53287
const nomodify byte* SPRITES_ENABLE = (byte*) 53269
const nomodify byte* SPRITES_EXPAND_X = (byte*) 53277
const nomodify byte* SPRITES_EXPAND_Y = (byte*) 53271
const nomodify byte* SPRITES_PTR = SCREEN+$3f8
const nomodify byte* SPRITES_XMSB = (byte*) 53264
const nomodify byte* SPRITES_XPOS = (byte*) 53248
const nomodify byte* SPRITES_YPOS = (byte*) 53249
const nomodify byte WHITE = 1
void anim()
signed word~ anim::$5 zp[2]:12 202.0
signed word~ anim::$7 zp[2]:14 202.0
byte~ anim::$9 reg byte a 202.0
signed word anim::sprite_x
signed word anim::sprite_x#0 sprite_x zp[2]:12 40.4
signed word anim::sprite_y
signed word anim::sprite_y#0 sprite_y zp[2]:14 50.5
const nomodify signed word g = -5
void init()
byte init::i
byte init::i#1 reg byte x 151.5
byte init::i#2 reg byte x 151.5
byte* init::sc
byte* init::sc#1 sc zp[2]:4 202.0
byte* init::sc#2 sc zp[2]:4 134.66666666666666
void main()
signed word xpos
signed word xpos#10 xpos zp[2]:8 101.0
signed word xpos#11 xpos zp[2]:8 17.75
signed word xpos#14 xpos zp[2]:8 78.5
signed word xvel
signed word xvel#11 xvel zp[2]:4 22.42857142857143
signed word xvel#14 xvel zp[2]:4 103.75
signed word xvel#16 xvel zp[2]:4 33.666666666666664
signed word ypos
signed word ypos#11 ypos zp[2]:10 67.33333333333333
signed word ypos#12 ypos zp[2]:10 19.363636363636363
signed word ypos#15 ypos zp[2]:10 103.75
signed word yvel
signed word yvel#10 yvel_1 zp[2]:6 303.0
signed word yvel#11 yvel_1 zp[2]:6 16.384615384615383
signed word yvel#14 yvel_1 zp[2]:6 78.5
signed word yvel#23 yvel_1 zp[2]:6 202.0
signed word yvel#3 yvel zp[2]:2 151.5
signed word yvel_init
signed word yvel_init#12 yvel_init zp[2]:2 15.214285714285715
signed word yvel_init#15 yvel_init zp[2]:2 83.0
signed word yvel_init#2 yvel_init zp[2]:2 101.0

zp[2]:2 [ yvel_init#15 yvel_init#12 yvel#3 yvel_init#2 ]
zp[2]:4 [ init::sc#2 init::sc#1 xvel#14 xvel#11 xvel#16 ]
reg byte x [ init::i#2 init::i#1 ]
zp[2]:6 [ yvel#10 yvel#14 yvel#11 yvel#23 ]
zp[2]:8 [ xpos#10 xpos#14 xpos#11 ]
zp[2]:10 [ ypos#11 ypos#15 ypos#12 ]
zp[2]:12 [ anim::$5 anim::sprite_x#0 ]
zp[2]:14 [ anim::$7 anim::sprite_y#0 ]
reg byte a [ anim::$9 ]
