const nomodify byte* SCREEN = (byte*) 1024
const byte SIZEOF_STRUCT_CIRCLE = 3
const byte SIZEOF_STRUCT_POINT = 2
void main()
const nomodify byte main::NUM_CIRCLES = main::NUM_POINTS-1
const nomodify byte main::NUM_POINTS = 4
struct Point main::c_center
byte main::idx

