const byte* MESSAGE[]  = "hello
world\"pm
void chrout(byte chrout::c)
byte chrout::c
byte chrout::c#0 reg byte a 112.0
void main()
byte main::i
byte main::i#1 i zp[1]:2 22.0
byte main::i#2 i zp[1]:2 11.0
const nomodify byte* memA = (byte*) 255

zp[1]:2 [ main::i#2 main::i#1 ]
reg byte a [ chrout::c#0 ]
