const byte OFFSET_STRUCT_PERSON_NAME = 1
const byte SIZEOF_STRUCT_PERSON = $10
void main()
const nomodify byte* main::SCREEN = (byte*) 1024
struct Person* main::person
const struct Person* main::person#1 person = persons+SIZEOF_STRUCT_PERSON
const struct Person* persons[2]  = { { id: 7, name: "jesper", age: $141 }, { id: 9, name: "henry", age: $7b } }

