const struct Point $0 = { x: 2, y: 3 }
const struct Point $1 = { x: 4, y: 5 }
const byte OFFSET_STRUCT_POINT_Y = 1
const byte OFFSET_STRUCT_VECTOR_Q = 2
const nomodify byte* SCREEN = (byte*) 1024
const byte SIZEOF_STRUCT_POINT = 2
void main()
struct Point main::p1 loadstore zp[2]:2
struct Point main::p2 loadstore zp[2]:4
struct Vector main::v loadstore zp[4]:6

zp[2]:2 [ main::p1 ]
zp[2]:4 [ main::p2 ]
zp[4]:6 [ main::v ]
