const byte SIZEOF_STRUCT_MYSTRUCT = 4
signed word main()
signed word main::return
struct myStruct main::s loadstore zp[4]:2
void update(struct myStruct* update::s , word update::size)
struct myStruct* update::s
const struct myStruct* update::s#0 s = &main::s
word update::size
const word update::size#0 size = $3e8

zp[4]:2 [ main::s ]
