const struct Point $0 = { x: 1, y: 2 }
const struct Point $1 = { x: 3, y: 4 }
const byte OFFSET_STRUCT_POINT_Y = 1
const nomodify byte* SCREEN = (byte*) 1024
const byte SIZEOF_STRUCT_POINT = 2
byte idx
byte idx#11 reg byte x 22.4
byte idx#14 reg byte x 42.599999999999994
byte idx#2 reg byte x 151.5
void main()
byte~ main::$4 reg byte y 16.5
byte main::i
byte main::i#1 i zp[1]:2 16.5
byte main::i#2 i zp[1]:2 6.6000000000000005
const struct Point* points[2]  = { fill( 2, 0) }
void print(byte print::p_x , byte print::p_y)
struct Point print::p
byte print::p_x
byte print::p_x#0 p_x zp[1]:3 56.0
byte print::p_y
byte print::p_y#0 reg byte y 37.33333333333333

zp[1]:2 [ main::i#2 main::i#1 ]
reg byte x [ idx#14 idx#11 ]
reg byte y [ main::$4 ]
zp[1]:3 [ print::p_x#0 ]
reg byte y [ print::p_y#0 ]
reg byte x [ idx#2 ]
