const byte OFFSET_STRUCT_POINT_Y = 1
const nomodify byte* SCREEN = (byte*) 1024
const byte SIZEOF_STRUCT_POINT = 2
void main()
struct Point main::point1 loadstore zp[2]:2
struct Point main::point2 loadstore zp[2]:4

zp[2]:2 [ main::point1 ]
zp[2]:4 [ main::point2 ]
