const nomodify byte OFFS_Y = 1
void main()
byte~ main::$2 reg byte y 11.0
byte~ main::$4 reg byte a 22.0
byte~ main::$8 reg byte x 16.5
const nomodify byte* main::SCREEN = (byte*) 1024
byte main::i
byte main::i#1 reg byte x 16.5
byte main::i#2 reg byte x 11.0
byte main::i1
byte main::i1#1 reg byte y 16.5
byte main::i1#2 reg byte y 13.75
const struct Point* points[4]  = { fill( 4, 0) }

reg byte x [ main::i#2 main::i#1 ]
reg byte y [ main::i1#2 main::i1#1 ]
reg byte y [ main::$2 ]
reg byte a [ main::$4 ]
reg byte x [ main::$8 ]
