void main()
byte~ main::$1 zp[1]:4 11.0
byte main::i
byte main::i#1 reg byte x 16.5
byte main::i#2 reg byte x 5.5
byte* main::screen
byte* main::screen#1 screen zp[2]:2 16.5
byte* main::screen#2 screen zp[2]:2 7.333333333333333
byte* main::screen#3 screen zp[2]:2 11.0

reg byte x [ main::i#2 main::i#1 ]
zp[2]:2 [ main::screen#3 main::screen#2 main::screen#1 ]
zp[1]:4 [ main::$1 ]
