bool cond(byte cond::b)
byte cond::b
byte cond::b#0 reg byte a 112.0
bool cond::return
bool cond::return#0 reg byte a 22.0
bool cond::return#1 reg byte a 37.33333333333333
byte m1(byte m1::i)
byte m1::i
byte m1::i#0 reg byte a 112.0
byte m1::return
byte m1::return#0 reg byte a 22.0
byte m1::return#1 reg byte a 37.33333333333333
byte m2(byte m2::i)
byte m2::i
byte m2::i#0 reg byte a 112.0
byte m2::return
byte m2::return#0 reg byte a 22.0
byte m2::return#1 reg byte a 37.33333333333333
void main()
bool~ main::$0 reg byte a 22.0
byte~ main::$2 reg byte a 22.0
byte~ main::$4 reg byte a 22.0
byte~ main::$5 reg byte a 33.0
const nomodify byte* main::SCREEN = (byte*) 1024
byte main::i
byte main::i#1 reg byte x 16.5
byte main::i#2 reg byte x 4.125

reg byte x [ main::i#2 main::i#1 ]
reg byte a [ main::$5 main::$4 main::$2 ]
reg byte a [ cond::b#0 ]
reg byte a [ cond::return#0 ]
reg byte a [ main::$0 ]
reg byte a [ m2::i#0 ]
reg byte a [ m2::return#0 ]
reg byte a [ m1::i#0 ]
reg byte a [ m1::return#0 ]
reg byte a [ cond::return#1 ]
reg byte a [ m2::return#1 ]
reg byte a [ m1::return#1 ]
