const byte RADIX::BINARY = 2
const byte RADIX::DECIMAL = $a
const byte RADIX::HEXADECIMAL = $10
const byte RADIX::OCTAL = 8
const nomodify byte READY_FRAMES = 5
byte action_count
byte action_count#11 reg byte x 101.0
byte action_count#12 reg byte x 17.75
byte action_count#15 reg byte x 71.0
bool game_ready()
bool game_ready::return
bool game_ready::return#0 reg byte a 22.0
bool game_ready::return#1 reg byte a 37.33333333333333
const byte* game_ready::str[6]  = "ready"
void main()
bool~ main::$0 reg byte a 22.0
byte main::i
byte main::i#1 i zp[1]:2 11.0
byte main::i#2 i zp[1]:2 3.142857142857143
const byte* main::str[7]  = "ready!"
void print_char(byte print_char::ch)
byte print_char::ch
byte print_char::ch#0 reg byte a 1.1000002E7
byte* print_char_cursor
byte* print_char_cursor#21 print_char_cursor zp[2]:5 2000909.5454545454
byte* print_char_cursor#25 print_char_cursor zp[2]:5 2750000.5
byte* print_char_cursor#33 print_char_cursor zp[2]:5 3371.0
byte* print_char_cursor#37 print_char_cursor zp[2]:5 28.0
byte* print_char_cursor#47 print_char_cursor zp[2]:5 22.0
byte* print_char_cursor#50 print_char_cursor zp[2]:5 22.0
byte* print_line_cursor
byte* print_line_cursor#14 print_line_cursor zp[2]:7 2010003.0
byte* print_line_cursor#15 print_line_cursor zp[2]:7 166669.27777777775
byte* print_line_cursor#24 print_line_cursor zp[2]:7 2022.6000000000001
byte* print_line_cursor#26 print_line_cursor zp[2]:7 28.0
void print_ln()
byte* print_screen
const byte* print_screen#0 print_screen = (byte*) 1024
void print_str(byte* print_str::str)
byte* print_str::str
byte* print_str::str#0 str zp[2]:3 5501.0
byte* print_str::str#1 str zp[2]:3 2000002.0
byte* print_str::str#2 str zp[2]:3 1002501.25
void print_str_ln(byte* print_str_ln::str)
byte* print_str_ln::str
byte* print_str_ln::str#2 str zp[2]:3 1001.0

zp[1]:2 [ main::i#2 main::i#1 ]
reg byte x [ action_count#11 action_count#15 action_count#12 ]
zp[2]:3 [ print_str_ln::str#2 print_str::str#2 print_str::str#0 print_str::str#1 ]
zp[2]:5 [ print_char_cursor#21 print_char_cursor#33 print_char_cursor#37 print_char_cursor#50 print_char_cursor#47 print_char_cursor#25 ]
zp[2]:7 [ print_line_cursor#14 print_line_cursor#24 print_line_cursor#26 print_line_cursor#15 ]
reg byte a [ game_ready::return#0 ]
reg byte a [ main::$0 ]
reg byte a [ game_ready::return#1 ]
reg byte a [ print_char::ch#0 ]
