void main()
const byte* main::BG_COLOR = (byte*) 53281
const byte main::b = 4
const byte* main::bs[]  = { 'c', 'm' }
const byte* main::pos = (byte*) 1281
byte* main::sc
const byte* main::sc#0 sc = (byte*)main::w2#0
word main::w
const word main::w#0 w = main::b*$100
word main::w2
const word main::w2#0 w2 = 1*$100+1+main::w#0

