void main()
byte~ main::$0 zp[1]:2 11.0
byte~ main::$2 reg byte x 22.0
byte main::b
byte main::b#1 reg byte y 16.5
byte main::b#2 reg byte y 11.0
const nomodify word* main::screen = (word*) 1024

reg byte y [ main::b#2 main::b#1 ]
zp[1]:2 [ main::$0 ]
reg byte x [ main::$2 ]
