const nomodify byte* SCREEN = (byte*) 1024
byte b
void main()
const byte* main::COLS = (byte*) 55296
const byte main::col = 2
byte main::i
byte main::i#1 reg byte x 16.5
byte main::i#2 reg byte x 14.666666666666666

reg byte x [ main::i#2 main::i#1 ]
