void main()
const byte* main::msg[6]  = "hello"
const byte* main::msg1[6]  = "world"
void print2(byte* print2::at , byte* print2::msg)
byte* print2::at loadstore !zp[-1]:250 zp[2]:250 8.076923076923077
byte print2::i
byte print2::i#1 i zp[1]:2 202.0
byte print2::i#2 i zp[1]:2 57.714285714285715
byte print2::j
byte print2::j#1 reg byte x 101.0
byte print2::j#2 reg byte x 50.5
byte* print2::msg loadstore !zp[-1]:252 zp[2]:252 18.727272727272727
void print_char(byte* print_char::at , byte print_char::idx , byte print_char::ch)
byte* print_char::at loadstore !zp[-1]:250 zp[2]:250 275.5
byte print_char::ch !reg byte a
byte print_char::ch#0 !reg byte a 202.0
byte print_char::ch#1 !reg byte a 1102.0
byte print_char::idx !reg byte x
byte print_char::idx#0 !reg byte x 101.0
byte print_char::idx#1 !reg byte x 1102.0
const byte* screen = (byte*) 1024

zp[1]:2 [ print2::i#2 print2::i#1 ]
reg byte x [ print2::j#2 print2::j#1 ]
reg byte a [ print_char::ch#1 print_char::ch#0 ]
reg byte x [ print_char::idx#1 print_char::idx#0 ]
zp[2]:250 [ print2::at print_char::at ]
zp[2]:252 [ print2::msg ]
