const nomodify signed word* BGCOL = (signed word*) 53280
void main()
signed word main::a
signed word main::a#1 a zp[2]:4 2.6666666666666665
signed word main::a#2 a_1 zp[2]:2 4.0
__varcall signed word plus(signed word plus::a , signed word plus::b)
signed word~ plus::$0 zp[2]:2 22.0
signed word plus::a loadstore zp[2]:2 3.75
signed word plus::b loadstore zp[2]:4 7.5
signed word plus::return loadstore zp[2]:2 3.75

zp[2]:2 [ plus::$0 plus::return plus::a main::a#2 ]
zp[2]:4 [ plus::b main::a#1 ]
