const nomodify byte* SCREEN = (byte*) 1024
void __start()
nomodify volatile byte ch loadstore zp[1]:2 14.714285714285715
void main()
byte main::i
byte main::i#1 reg byte x 202.0
byte main::i#2 reg byte x 134.66666666666666

reg byte x [ main::i#2 main::i#1 ]
zp[1]:2 [ ch ]
