const byte SIZEOF_WORD = 2
void main()
const nomodify word* main::SCREEN = (word*) 1024
const word* main::w1 = (word*) 4096
const word* main::w2 = (word*) 4416
word main::wd
const word main::wd#0 wd = main::w2-main::w1/SIZEOF_WORD

