const nomodify byte* CHARGEN = (byte*) 53248
const nomodify byte* D018 = (byte*) 53272
const nomodify byte* FONT_COMPRESSED = (byte*) 10240
const byte* FONT_COMPRESSED_MAP[$100]  = { fill( $100, 0) }
const nomodify byte* FONT_ORIGINAL = (byte*) 8192
const nomodify byte* PROCPORT = (byte*) 1
const nomodify byte PROCPORT_BASIC_KERNEL_IO = 7
const nomodify byte PROCPORT_RAM_CHARROM = 1
const nomodify byte* SCREEN = (byte*) 1024
void font_2x2(byte* font_2x2::font_original , byte* font_2x2::font_2x2)
byte~ font_2x2::$1 reg byte a 20002.0
byte~ font_2x2::$10 reg byte a 2002.0
byte~ font_2x2::$11 reg byte y 1001.0
byte~ font_2x2::$12 reg byte a 2002.0
byte~ font_2x2::$13 reg byte a 2002.0
byte~ font_2x2::$14 reg byte y 1001.0
byte~ font_2x2::$15 reg byte a 2002.0
word~ font_2x2::$5 zp[2]:15 20002.0
word~ font_2x2::$7 zp[2]:15 20002.0
byte font_2x2::b
byte font_2x2::b#1 reg byte y 15001.5
byte font_2x2::b#2 reg byte y 2000.2
byte font_2x2::c
byte font_2x2::c#1 c zp[1]:7 151.5
byte font_2x2::c#11 c zp[1]:7 5.611111111111111
byte* font_2x2::font_2x2
byte* font_2x2::font_original
byte font_2x2::glyph_bit
byte font_2x2::glyph_bit#0 reg byte x 5000.5
byte font_2x2::glyph_bits
byte font_2x2::glyph_bits#0 glyph_bits zp[1]:6 2002.0
byte font_2x2::glyph_bits#1 glyph_bits zp[1]:6 6667.333333333333
byte font_2x2::glyph_bits#2 glyph_bits zp[1]:6 3444.8888888888887
word font_2x2::glyph_bits_2x2
word font_2x2::glyph_bits_2x2#1 glyph_bits_2x2 zp[2]:15 20002.0
word font_2x2::glyph_bits_2x2#2 glyph_bits_2x2 zp[2]:15 2000.5000000000002
word font_2x2::glyph_bits_2x2#3 glyph_bits_2x2 zp[2]:15 4000.4
byte font_2x2::l
byte font_2x2::l#1 l zp[1]:8 1501.5
byte font_2x2::l#2 l zp[1]:8 103.55172413793102
byte font_2x2::l2
byte font_2x2::l2#1 l2 zp[1]:5 1501.5
byte font_2x2::l2#8 l2 zp[1]:5 250.25000000000003
byte font_2x2::l2#9 l2 zp[1]:5 667.3333333333334
byte* font_2x2::next_2x2
byte* font_2x2::next_2x2#1 next_2x2 zp[2]:17 50.5
byte* font_2x2::next_2x2_left
byte* font_2x2::next_2x2_left#0 next_2x2_left zp[2]:17 70.76470588235294
byte* font_2x2::next_2x2_left#1 next_2x2_left_1 zp[2]:11 1001.0
byte* font_2x2::next_2x2_left#10 next_2x2_left_1 zp[2]:11 202.0
byte* font_2x2::next_2x2_left#7 next_2x2_left_1 zp[2]:11 157.8846153846154
byte* font_2x2::next_2x2_left#8 next_2x2_left_1 zp[2]:11 1001.0
byte* font_2x2::next_2x2_right
byte* font_2x2::next_2x2_right#0 next_2x2_right zp[2]:13 101.0
byte* font_2x2::next_2x2_right#1 next_2x2_right zp[2]:13 2002.0
byte* font_2x2::next_2x2_right#7 next_2x2_right zp[2]:13 157.8846153846154
byte* font_2x2::next_2x2_right#8 next_2x2_right zp[2]:13 1001.0
byte* font_2x2::next_original
byte* font_2x2::next_original#1 next_original zp[2]:9 67.33333333333333
byte* font_2x2::next_original#4 next_original zp[2]:9 34.371428571428574
byte font_compress(byte* font_compress::font_original , byte* font_compress::font_compressed , byte* font_compress::compress_mapping)
byte* font_compress::compress_mapping
byte* font_compress::font_compressed
byte* font_compress::font_original
byte font_compress::font_size
byte font_compress::font_size#1 reg byte x 101.0
byte font_compress::font_size#2 font_size zp[1]:7 38.84615384615385
byte font_compress::font_size#9 font_size zp[1]:7 202.0
byte font_compress::found
byte font_compress::found#0 reg byte a 101.0
byte font_compress::found#2 reg byte a 303.0
byte font_compress::found#3 reg byte a 202.0
byte font_compress::i
byte font_compress::i#1 i zp[1]:8 101.0
byte font_compress::i#4 i zp[1]:8 16.833333333333332
byte font_compress::l
byte font_compress::l#1 reg byte y 1501.5
byte font_compress::l#2 reg byte y 2002.0
byte* font_compress::next_compressed
byte* font_compress::next_compressed#1 next_compressed zp[2]:9 67.33333333333333
byte* font_compress::next_compressed#4 next_compressed zp[2]:9 108.66666666666669
byte* font_compress::next_compressed#7 next_compressed zp[2]:9 50.5
byte* font_compress::next_original
byte* font_compress::next_original#1 next_original zp[2]:17 50.5
byte* font_compress::next_original#2 next_original zp[2]:17 76.70588235294117
byte font_compress::return
byte font_compress::return#1 reg byte x 60.599999999999994
byte font_compress::return#5 reg byte x 202.0
byte font_find(byte* font_find::glyph , byte* font_find::font , byte font_find::font_size)
byte* font_find::font
byte* font_find::font#1 font zp[2]:13 100001.0
byte* font_find::font#4 font zp[2]:13 150000.375
byte font_find::font_size
byte font_find::font_size#0 font_size zp[1]:7 8341.833333333332
byte font_find::found
byte font_find::found#2 reg byte a 100001.0
byte* font_find::glyph
byte* font_find::glyph#0 glyph zp[2]:17 76930.92307692308
byte font_find::i
byte font_find::i#1 reg byte x 200002.0
byte font_find::i#2 reg byte x 44444.88888888889
byte font_find::l
byte font_find::l#1 reg byte y 1500001.5
byte font_find::l#2 reg byte y 2000002.0
byte font_find::return
byte font_find::return#0 reg byte a 202.0
byte font_find::return#3 reg byte x 33367.33333333333
void main()
byte main::c
byte main::c#1 c zp[1]:3 42.599999999999994
byte main::c#2 c zp[1]:3 62.8
byte main::c#4 c zp[1]:3 22.0
byte* main::toD0181_gfx
byte main::toD0181_return
const byte main::toD0181_return#0 toD0181_return = >(word)SCREEN&$3fff*4|>(word)FONT_COMPRESSED/4&$f
byte* main::toD0181_screen
byte main::x
byte main::x#1 x zp[1]:4 151.5
byte main::x#2 x zp[1]:4 50.5
byte main::y
byte main::y#1 y zp[1]:2 16.5
byte main::y#4 y zp[1]:2 13.666666666666664
void* memset(void* memset::str , byte memset::c , word memset::num)
byte memset::c
byte memset::c#0 reg byte x 17.166666666666664
byte* memset::dst
byte* memset::dst#1 dst zp[2]:11 202.0
byte* memset::dst#2 dst zp[2]:11 134.66666666666666
byte* memset::end
const byte* memset::end#0 end = (byte*)memset::str#0+memset::num#0
word memset::num
const word memset::num#0 num = $400
void* memset::return
void* memset::str
const void* memset::str#0 str = (void*)SCREEN
void show(byte show::c , byte show::x , byte show::y , byte* show::font_mapping)
word~ show::$0 zp[2]:15 2002.0
byte*~ show::$1 zp[2]:15 1001.0
byte~ show::$2 reg byte a 2002.0
byte~ show::$4 reg byte x 2002.0
byte~ show::$5 reg byte a 2002.0
byte~ show::$6 reg byte a 2002.0
word~ show::$7 zp[2]:15 1501.5
word~ show::$8 zp[2]:17 2002.0
word~ show::$9 zp[2]:15 2002.0
byte show::c
byte show::c#0 c zp[1]:3 273.6666666666667
byte* show::font_mapping
byte* show::ptr
byte* show::ptr#0 ptr zp[2]:15 715.0
byte show::x
byte show::x#0 reg byte x 157.42857142857142
byte show::y
byte show::y#0 reg byte a 101.0

zp[1]:2 [ main::y#4 main::y#1 ]
zp[1]:3 [ main::c#2 main::c#4 main::c#1 show::c#0 ]
zp[1]:4 [ main::x#2 main::x#1 ]
zp[1]:5 [ font_2x2::l2#8 font_2x2::l2#9 font_2x2::l2#1 ]
zp[1]:6 [ font_2x2::glyph_bits#2 font_2x2::glyph_bits#0 font_2x2::glyph_bits#1 ]
reg byte y [ font_2x2::b#2 font_2x2::b#1 ]
reg byte x [ font_2x2::glyph_bit#0 ]
zp[1]:7 [ font_compress::font_size#2 font_compress::font_size#9 font_find::font_size#0 font_2x2::c#11 font_2x2::c#1 ]
zp[1]:8 [ font_compress::i#4 font_compress::i#1 font_2x2::l#2 font_2x2::l#1 ]
zp[2]:9 [ font_compress::next_compressed#4 font_compress::next_compressed#7 font_compress::next_compressed#1 font_2x2::next_original#4 font_2x2::next_original#1 ]
reg byte y [ font_compress::l#2 font_compress::l#1 ]
reg byte a [ font_compress::found#2 font_compress::found#3 font_compress::found#0 ]
reg byte x [ font_compress::return#1 font_compress::font_size#1 font_compress::return#5 ]
zp[2]:11 [ memset::dst#2 memset::dst#1 font_2x2::next_2x2_left#7 font_2x2::next_2x2_left#10 font_2x2::next_2x2_left#8 font_2x2::next_2x2_left#1 ]
zp[2]:13 [ font_find::font#4 font_find::font#1 font_2x2::next_2x2_right#7 font_2x2::next_2x2_right#0 font_2x2::next_2x2_right#8 font_2x2::next_2x2_right#1 ]
reg byte x [ font_find::return#3 font_find::i#2 font_find::i#1 ]
reg byte y [ font_find::l#2 font_find::l#1 ]
reg byte a [ font_find::found#2 ]
reg byte x [ memset::c#0 ]
reg byte x [ show::x#0 ]
reg byte a [ show::y#0 ]
reg byte a [ font_2x2::$1 ]
reg byte a [ font_2x2::$10 ]
reg byte y [ font_2x2::$11 ]
reg byte a [ font_2x2::$12 ]
reg byte a [ font_2x2::$13 ]
reg byte y [ font_2x2::$14 ]
reg byte a [ font_2x2::$15 ]
reg byte a [ font_find::return#0 ]
zp[2]:15 [ show::$7 show::$9 show::$0 show::$1 show::ptr#0 font_2x2::glyph_bits_2x2#3 font_2x2::glyph_bits_2x2#2 font_2x2::$5 font_2x2::$7 font_2x2::glyph_bits_2x2#1 ]
zp[2]:17 [ show::$8 font_compress::next_original#2 font_compress::next_original#1 font_find::glyph#0 font_2x2::next_2x2_left#0 font_2x2::next_2x2#1 ]
reg byte a [ show::$2 ]
reg byte x [ show::$4 ]
reg byte a [ show::$5 ]
reg byte a [ show::$6 ]
