const signed byte* PERSP_Z[$100]  = kickasm {{ {
    .var d = 256.0	
    .var z0 = 5.0	
    .for(var z=0;z<$100;z++) {
    	.if(z>127) {
    		.byte round(d / (z0 - ((z - 256) / 64.0)));
    	} else {
    		.byte round(d / (z0 - (z / 64.0)));
    	}
    }
	}
 }}
const byte RADIX::BINARY = 2
const byte RADIX::DECIMAL = $a
const byte RADIX::HEXADECIMAL = $10
const byte RADIX::OCTAL = 8
void do_perspective(signed byte do_perspective::x , signed byte do_perspective::y , signed byte do_perspective::z)
const byte* do_perspective::str[2]  = "("
const byte* do_perspective::str1[2]  = ","
const byte* do_perspective::str3[7]  = ") -> ("
const byte* do_perspective::str5[2]  = ")"
signed byte do_perspective::x
const signed byte do_perspective::x#0 x = $39
signed byte do_perspective::y
const signed byte do_perspective::y#0 y = -$47
signed byte do_perspective::z
const signed byte do_perspective::z#0 z = $36
void main()
void* memset(void* memset::str , byte memset::c , word memset::num)
byte memset::c
const byte memset::c#0 c = ' '
byte* memset::dst
byte* memset::dst#1 dst zp[2]:4 2002.0
byte* memset::dst#2 dst zp[2]:4 1334.6666666666667
byte* memset::end
const byte* memset::end#0 end = (byte*)memset::str#0+memset::num#0
word memset::num
const word memset::num#0 num = $3e8
void* memset::return
void* memset::str
const void* memset::str#0 str = (void*)print_screen#0
void mulf_init()
byte~ mulf_init::$2 reg byte x 151.5
byte~ mulf_init::$6 reg byte x 151.5
signed word mulf_init::add
signed word mulf_init::add#1 add zp[2]:2 67.33333333333333
signed word mulf_init::add#2 add zp[2]:2 23.307692307692307
byte mulf_init::i
byte mulf_init::i#1 reg byte y 151.5
byte mulf_init::i#2 reg byte y 57.714285714285715
signed word mulf_init::sqr
signed word mulf_init::sqr#1 sqr zp[2]:4 50.5
signed word mulf_init::sqr#2 sqr zp[2]:4 25.25
byte mulf_init::val
byte mulf_init::val#0 val zp[1]:8 90.89999999999999
const byte* mulf_sqr1[$200]  = { fill( $200, 0) }
const byte* mulf_sqr2[$200]  = { fill( $200, 0) }
void perspective(signed byte perspective::x , signed byte perspective::y , signed byte perspective::z)
signed byte perspective::x
signed byte perspective::y
signed byte perspective::z
void print_char(byte print_char::ch)
byte print_char::ch
byte print_char::ch#0 reg byte a 2002.0
byte print_char::ch#3 reg byte a 2002.0
byte print_char::ch#4 reg byte a 2002.0
byte print_char::ch#5 reg byte a 13004.0
byte* print_char_cursor
byte* print_char_cursor#1 print_char_cursor zp[2]:6 128.0
byte* print_char_cursor#11 print_char_cursor zp[2]:6 467.65384615384613
byte* print_char_cursor#45 print_char_cursor zp[2]:6 11603.5
byte* print_char_cursor#72 print_char_cursor zp[2]:6 374.6666666666667
byte* print_char_cursor#77 print_char_cursor zp[2]:6 156.0
void print_cls()
const to_nomodify byte* print_hextab[]  = "0123456789abcdef"z
byte* print_line_cursor
byte* print_line_cursor#0 print_line_cursor zp[2]:4 1501.5
byte* print_line_cursor#12 print_line_cursor zp[2]:4 2002.0
void print_ln()
void print_schar(signed byte print_schar::b)
signed byte print_schar::b
signed byte print_schar::b#0 reg byte x 202.0
signed byte print_schar::b#4 reg byte x 50.5
signed byte print_schar::b#6 reg byte x 202.0
byte* print_screen
const byte* print_screen#0 print_screen = (byte*) 1024
void print_str(byte* print_str::str)
byte* print_str::str
byte* print_str::str#0 str zp[2]:2 2002.0
byte* print_str::str#10 str zp[2]:2 101.0
byte* print_str::str#7 str zp[2]:2 1026.25
void print_uchar(byte print_uchar::b)
byte~ print_uchar::$0 reg byte a 2002.0
byte~ print_uchar::$2 reg byte x 2002.0
byte print_uchar::b
byte print_uchar::b#0 reg byte x 202.0
byte print_uchar::b#3 reg byte x 531.25
byte print_uchar::b#5 reg byte x 22.0
byte print_uchar::b#6 reg byte x 22.0
const word* psp1 = (word*) 243
const word* psp2 = (word*) 245
const signed byte* xr = (signed byte*) 240
const signed byte* yr = (signed byte*) 241
const signed byte* zr = (signed byte*) 242

reg byte y [ mulf_init::i#2 mulf_init::i#1 ]
zp[2]:2 [ print_str::str#7 print_str::str#10 print_str::str#0 mulf_init::add#2 mulf_init::add#1 ]
reg byte x [ print_schar::b#6 print_schar::b#0 print_schar::b#4 ]
reg byte x [ print_uchar::b#3 print_uchar::b#5 print_uchar::b#6 print_uchar::b#0 ]
zp[2]:4 [ print_line_cursor#12 print_line_cursor#0 memset::dst#2 memset::dst#1 mulf_init::sqr#2 mulf_init::sqr#1 ]
reg byte a [ print_char::ch#5 print_char::ch#0 print_char::ch#3 print_char::ch#4 ]
zp[2]:6 [ print_char_cursor#45 print_char_cursor#72 print_char_cursor#1 print_char_cursor#77 print_char_cursor#11 ]
zp[1]:8 [ mulf_init::val#0 ]
reg byte x [ mulf_init::$2 ]
reg byte x [ mulf_init::$6 ]
reg byte a [ print_uchar::$0 ]
reg byte x [ print_uchar::$2 ]
