const nomodify byte CYCLES_PER_SCANLINE = $4c
const byte OFFSET_STRUCT_ATARI_TIA_WRITE_COLUBK = 9
const byte OFFSET_STRUCT_ATARI_TIA_WRITE_COLUP0 = 6
const byte OFFSET_STRUCT_ATARI_TIA_WRITE_GRP0 = $1b
const byte OFFSET_STRUCT_ATARI_TIA_WRITE_HMOVE = $2a
const byte OFFSET_STRUCT_ATARI_TIA_WRITE_NUSIZ0 = 4
const byte OFFSET_STRUCT_ATARI_TIA_WRITE_VBLANK = 1
const byte OFFSET_STRUCT_ATARI_TIA_WRITE_WSYNC = 2
const byte OFFSET_STRUCT_MOS6532_RIOT_INTIM = 4
const byte OFFSET_STRUCT_MOS6532_RIOT_TIM64T = $16
const nomodify struct MOS6532_RIOT* RIOT = (struct MOS6532_RIOT*) 640
const to_nomodify byte* SINTABLE_160[$100]  = kickasm {{ .fill $100, 10+round(64.5+64.5*sin(2*PI*i/256))
 }}
const byte* SPRITE_C[]  = { 0, $18, $18, $18, $18, $3c, $3c, $3c, $3c, $66, $66, $66, $66, $c0, $c0, $c0, $c0, $c0, $c0, $c0, $c0, $66, $66, $66, $66, $3c, $3c, $3c, $3c, $18, $18, $18, $18, 0 }
const nomodify struct ATARI_TIA_WRITE* TIA = (struct ATARI_TIA_WRITE*) 0
const nomodify byte* TIA_HMP0 = (byte*) 32
const nomodify byte* TIA_RESP0 = (byte*) 16
const nomodify byte* TIA_WSYNC = (byte*) 2
void __start()
byte idx
byte idx#0 idx zp[1]:128 39.357142857142854
byte idx#1 idx zp[1]:128 133.66666666666669
byte idx2
byte idx2#0 idx2 zp[1]:129 42.38461538461539
byte idx2#1 idx2 zp[1]:129 109.36363636363637
void main()
byte main::gfx
byte main::gfx#0 reg byte a 1501.5
byte main::i
byte main::i#1 reg byte x 2002.0
byte main::i#2 reg byte x 417.08333333333337
byte main::p0_idx
byte main::p0_idx#3 reg byte y 2002.0
byte main::p0_idx#4 reg byte y 500.5
byte main::p0_idx#8 reg byte y 1501.5
volatile byte p0_xpos loadstore zp[1]:130 2.452380952380952
byte p0_ypos
byte p0_ypos#0 p0_ypos zp[1]:131 52.476190476190474

zp[1]:128 [ idx#1 idx#0 ]
zp[1]:129 [ idx2#1 idx2#0 ]
reg byte x [ main::i#2 main::i#1 ]
reg byte y [ main::p0_idx#4 main::p0_idx#8 main::p0_idx#3 ]
zp[1]:130 [ p0_xpos ]
zp[1]:131 [ p0_ypos#0 ]
reg byte a [ main::gfx#0 ]
